
************* 07-25-2019 18:58:00 *************
07-25-2019 18:58:00-- API Call Success.------API called http://localhost:44762//search/createindex/awctcatalogindexnew2/PRODUCTION/7/632/632 
***********************************************

************* 07-25-2019 18:58:00 *************
Indexer|7|awctcatalogindexnew2|6|632|Manually|http://localhost:44762/|2|632|PRODUCTION|bG9jYWxob3N0OjY3NjZ8
***********************************************
