
Date - 26 Jul 2019 10:05:26
Level - ERROR
UserAgent - Mozilla/5.0 (Windows NT 10.0; Win64; x64; rv:68.0) Gecko/20100101 Firefox/68.0
Message - 
Error Message: Value cannot be null.
Parameter name: value

User Referrer: localhost:3288

Browser Name: Firefox

UserId: 

Logger: System.Web

Debug Object Details: 


System.ArgumentNullException: Value cannot be null.
Parameter name: value
   at System.Web.Caching.CacheEntry..ctor(String key, Object value, CacheDependency dependency, CacheItemRemovedCallback onRemovedHandler, DateTime utcAbsoluteExpiration, TimeSpan slidingExpiration, CacheItemPriority priority, Boolean isPublic, CacheInternal cache)
   at System.Web.Caching.CacheInternal.DoInsert(Boolean isPublic, String key, Object value, CacheDependency dependencies, DateTime utcAbsoluteExpiration, TimeSpan slidingExpiration, CacheItemPriority priority, CacheItemRemovedCallback onRemoveCallback, Boolean replace)
   at System.Web.Caching.AspNetCache.Insert(String key, Object item, CacheInsertOptions options)
   at Znode.Engine.WebStore.Helper.AddIntoCache[T](T model, String cacheKey) in D:\Jenkins-Znode\workspace\Znode-NuGet-Project-Build\Projects\Libraries\Znode.WebStore.Core\Helpers\Helper.cs:line 149
   at Znode.Engine.WebStore.Agents.WidgetDataAgent.GetContent(WidgetParameter parameter) in D:\Jenkins-Znode\workspace\Znode-NuGet-Project-Build\Projects\Libraries\Znode.WebStore.Core\Agents\Agents\WidgetDataAgent.cs:line 243
   at System.Web.Mvc.Html.HTMLExtensions.TextControl(HtmlHelper htmlHelper, String partialViewName, WidgetParameter widgetparameter) in D:\Jenkins-Znode\workspace\Znode-NuGet-Project-Build\Projects\Libraries\Znode.WebStore.Core\Extensions\HTMLExtensions.cs:line 107
   at ASP._Page_Views_Themes_AWCT_Views_Shared_Widget__WidgetTextEditor_cshtml.Execute() in E:\WorkSpace\AWCT 9.2.1.2\AWCT_9.2.1.2\AWCTMultifront\Projects\Znode.Engine.WebStore\Views\Themes\AWCT\Views\Shared\Widget\_WidgetTextEditor.cshtml:line 3
   at System.Web.WebPages.WebPageBase.ExecutePageHierarchy()
   at System.Web.Mvc.WebViewPage.ExecutePageHierarchy()
   at System.Web.WebPages.WebPageBase.ExecutePageHierarchy(WebPageContext pageContext, TextWriter writer, WebPageRenderingBase startPage)
   at System.Web.Mvc.RazorView.RenderView(ViewContext viewContext, TextWriter writer, Object instance)
   at System.Web.Mvc.BuildManagerCompiledView.Render(ViewContext viewContext, TextWriter writer)
   at System.Web.Mvc.Html.HTMLExtensions.BuildPartial(HtmlHelper htmlHelper, ControllerContext controllerContext, ViewEngineResult viewResult, Object data) in D:\Jenkins-Znode\workspace\Znode-NuGet-Project-Build\Projects\Libraries\Znode.WebStore.Core\Extensions\HTMLExtensions.cs:line 88
   at System.Web.Mvc.Html.HTMLExtensions.GetWidget(HtmlHelper htmlHelper, ControllerContext controllerContext, ViewEngineResult viewResult, WidgetParameter prm) in D:\Jenkins-Znode\workspace\Znode-NuGet-Project-Build\Projects\Libraries\Znode.WebStore.Core\Extensions\HTMLExtensions.cs:line 46
   at System.Web.Mvc.Html.HTMLExtensions.WidgetPartial(HtmlHelper htmlHelper, String widgetCode, String displayName, String widgetKey, String typeOfMapping, Int32 mappingId, Dictionary`2 properties) in D:\Jenkins-Znode\workspace\Znode-NuGet-Project-Build\Projects\Libraries\Znode.WebStore.Core\Extensions\HTMLExtensions.cs:line 39
   at ASP._Page_Views_Shared__WidgetAjax_cshtml.Execute() in E:\WorkSpace\AWCT 9.2.1.2\AWCT_9.2.1.2\AWCTMultifront\Projects\Znode.Engine.WebStore\Views\Shared\_WidgetAjax.cshtml:line 2
   at System.Web.WebPages.WebPageBase.ExecutePageHierarchy()
   at System.Web.Mvc.WebViewPage.ExecutePageHierarchy()
   at System.Web.WebPages.WebPageBase.ExecutePageHierarchy(WebPageContext pageContext, TextWriter writer, WebPageRenderingBase startPage)
   at System.Web.Mvc.RazorView.RenderView(ViewContext viewContext, TextWriter writer, Object instance)
   at System.Web.Mvc.BuildManagerCompiledView.Render(ViewContext viewContext, TextWriter writer)
   at System.Web.Mvc.ViewResultBase.ExecuteResult(ControllerContext context)
   at System.Web.Mvc.ControllerActionInvoker.InvokeActionResult(ControllerContext controllerContext, ActionResult actionResult)
   at System.Web.Mvc.ControllerActionInvoker.InvokeActionResultFilterRecursive(IList`1 filters, Int32 filterIndex, ResultExecutingContext preContext, ControllerContext controllerContext, ActionResult actionResult)
   at System.Web.Mvc.ControllerActionInvoker.InvokeActionResultFilterRecursive(IList`1 filters, Int32 filterIndex, ResultExecutingContext preContext, ControllerContext controllerContext, ActionResult actionResult)
   at System.Web.Mvc.ControllerActionInvoker.InvokeActionResultWithFilters(ControllerContext controllerContext, IList`1 filters, ActionResult actionResult)
   at System.Web.Mvc.Async.AsyncControllerActionInvoker.<>c__DisplayClass21.<>c__DisplayClass2b.<BeginInvokeAction>b__1c()
   at System.Web.Mvc.Async.AsyncControllerActionInvoker.<>c__DisplayClass21.<BeginInvokeAction>b__1e(IAsyncResult asyncResult)

Date - 26 Jul 2019 11:39:04
Level - ERROR
UserAgent - Mozilla/5.0 (Windows NT 10.0; Win64; x64; rv:68.0) Gecko/20100101 Firefox/68.0
Message - 
Error Message: An error occurred while executing the command definition. See the inner exception for details.

User Referrer: localhost:3288

Browser Name: Firefox

UserId: 

Logger: Znode.Engine.Api.Client

Debug Object Details: 


Znode.Engine.Exceptions.ZnodeException: An error occurred while executing the command definition. See the inner exception for details.
   at Znode.Engine.Api.Client.BaseClient.CheckStatusAndThrow[T](ApiStatus status, Collection`1 expectedStatusCodes) in D:\Jenkins-Znode\workspace\Znode-NuGet-Project-Build\Projects\Engines\Znode.Engine.Api.Client\Clients\Clients\Shared\BaseClient.cs:line 204
   at Znode.Engine.Api.Client.UserClient.GetAccountByUser(String username) in D:\Jenkins-Znode\workspace\Znode-NuGet-Project-Build\Projects\Engines\Znode.Engine.Api.Client\Clients\Clients\User\UserClient.cs:line 78
   at Znode.Engine.WebStore.BaseAgent.GetUserDetails() in D:\Jenkins-Znode\workspace\Znode-NuGet-Project-Build\Projects\Libraries\Znode.WebStore.Core\Agents\Agents\BaseAgent.cs:line 151

Date - 26 Jul 2019 11:43:01
Level - ERROR
UserAgent - Mozilla/5.0 (Windows NT 10.0; Win64; x64; rv:68.0) Gecko/20100101 Firefox/68.0
Message - 
Error Message: Object reference not set to an instance of an object.

User Referrer: localhost:3288

Browser Name: Firefox

UserId: 

Logger: Znode.Engine.Api.Client

Debug Object Details: 


Znode.Engine.Exceptions.ZnodeException: Object reference not set to an instance of an object.
   at Znode.Engine.Api.Client.BaseClient.CheckStatusAndThrow[T](ApiStatus status, Collection`1 expectedStatusCodes) in D:\Jenkins-Znode\workspace\Znode-NuGet-Project-Build\Projects\Engines\Znode.Engine.Api.Client\Clients\Clients\Shared\BaseClient.cs:line 204
   at Znode.Engine.Api.Client.UserClient.GetAccountByUser(String username) in D:\Jenkins-Znode\workspace\Znode-NuGet-Project-Build\Projects\Engines\Znode.Engine.Api.Client\Clients\Clients\User\UserClient.cs:line 78
   at Znode.Engine.WebStore.BaseAgent.GetUserDetails() in D:\Jenkins-Znode\workspace\Znode-NuGet-Project-Build\Projects\Libraries\Znode.WebStore.Core\Agents\Agents\BaseAgent.cs:line 151

Date - 26 Jul 2019 11:43:04
Level - ERROR
UserAgent - Mozilla/5.0 (Windows NT 10.0; Win64; x64; rv:68.0) Gecko/20100101 Firefox/68.0
Message - 
Error Message: An error occurred while executing the command definition. See the inner exception for details.

User Referrer: localhost:3288

Browser Name: Firefox

UserId: 

Logger: Znode.Engine.Api.Client

Debug Object Details: 


Znode.Engine.Exceptions.ZnodeException: An error occurred while executing the command definition. See the inner exception for details.
   at Znode.Engine.Api.Client.BaseClient.CheckStatusAndThrow[T](ApiStatus status, Collection`1 expectedStatusCodes) in D:\Jenkins-Znode\workspace\Znode-NuGet-Project-Build\Projects\Engines\Znode.Engine.Api.Client\Clients\Clients\Shared\BaseClient.cs:line 204
   at Znode.Engine.Api.Client.UserClient.GetAccountByUser(String username) in D:\Jenkins-Znode\workspace\Znode-NuGet-Project-Build\Projects\Engines\Znode.Engine.Api.Client\Clients\Clients\User\UserClient.cs:line 78
   at Znode.Engine.WebStore.BaseAgent.GetUserDetails() in D:\Jenkins-Znode\workspace\Znode-NuGet-Project-Build\Projects\Libraries\Znode.WebStore.Core\Agents\Agents\BaseAgent.cs:line 151

Date - 26 Jul 2019 11:49:17
Level - ERROR
UserAgent - Mozilla/5.0 (Windows NT 10.0; Win64; x64; rv:68.0) Gecko/20100101 Firefox/68.0
Message - 
Error Message: An error occurred while executing the command definition. See the inner exception for details.

User Referrer: localhost:3288

Browser Name: Firefox

UserId: 

Logger: Znode.Engine.Api.Client

Debug Object Details: 


Znode.Engine.Exceptions.ZnodeException: An error occurred while executing the command definition. See the inner exception for details.
   at Znode.Engine.Api.Client.BaseClient.CheckStatusAndThrow[T](ApiStatus status, Collection`1 expectedStatusCodes) in D:\Jenkins-Znode\workspace\Znode-NuGet-Project-Build\Projects\Engines\Znode.Engine.Api.Client\Clients\Clients\Shared\BaseClient.cs:line 204
   at Znode.Engine.Api.Client.UserClient.GetAccountByUser(String username) in D:\Jenkins-Znode\workspace\Znode-NuGet-Project-Build\Projects\Engines\Znode.Engine.Api.Client\Clients\Clients\User\UserClient.cs:line 78
   at Znode.Engine.WebStore.BaseAgent.GetUserDetails() in D:\Jenkins-Znode\workspace\Znode-NuGet-Project-Build\Projects\Libraries\Znode.WebStore.Core\Agents\Agents\BaseAgent.cs:line 151

Date - 26 Jul 2019 11:49:17
Level - ERROR
UserAgent - Mozilla/5.0 (Windows NT 10.0; Win64; x64; rv:68.0) Gecko/20100101 Firefox/68.0
Message - 
Error Message: The underlying provider failed on Open.

User Referrer: localhost:3288

Browser Name: Firefox

UserId: 

Logger: Znode.Engine.Api.Client

Debug Object Details: 


Znode.Engine.Exceptions.ZnodeException: The underlying provider failed on Open.
   at Znode.Engine.Api.Client.BaseClient.CheckStatusAndThrow[T](ApiStatus status, Collection`1 expectedStatusCodes) in D:\Jenkins-Znode\workspace\Znode-NuGet-Project-Build\Projects\Engines\Znode.Engine.Api.Client\Clients\Clients\Shared\BaseClient.cs:line 204
   at Znode.Engine.Api.Client.UserClient.GetAccountByUser(String username) in D:\Jenkins-Znode\workspace\Znode-NuGet-Project-Build\Projects\Engines\Znode.Engine.Api.Client\Clients\Clients\User\UserClient.cs:line 78
   at Znode.Engine.WebStore.BaseAgent.GetUserDetails() in D:\Jenkins-Znode\workspace\Znode-NuGet-Project-Build\Projects\Libraries\Znode.WebStore.Core\Agents\Agents\BaseAgent.cs:line 151

Date - 26 Jul 2019 11:49:17
Level - ERROR
UserAgent - Mozilla/5.0 (Windows NT 10.0; Win64; x64; rv:68.0) Gecko/20100101 Firefox/68.0
Message - 
Error Message: The underlying provider failed on Open.

User Referrer: localhost:3288

Browser Name: Firefox

UserId: 

Logger: Znode.Engine.Api.Client

Debug Object Details: 


Znode.Engine.Exceptions.ZnodeException: The underlying provider failed on Open.
   at Znode.Engine.Api.Client.BaseClient.CheckStatusAndThrow[T](ApiStatus status, Collection`1 expectedStatusCodes) in D:\Jenkins-Znode\workspace\Znode-NuGet-Project-Build\Projects\Engines\Znode.Engine.Api.Client\Clients\Clients\Shared\BaseClient.cs:line 204
   at Znode.Engine.Api.Client.UserClient.GetAccountByUser(String username) in D:\Jenkins-Znode\workspace\Znode-NuGet-Project-Build\Projects\Engines\Znode.Engine.Api.Client\Clients\Clients\User\UserClient.cs:line 78
   at Znode.Engine.WebStore.BaseAgent.GetUserDetails() in D:\Jenkins-Znode\workspace\Znode-NuGet-Project-Build\Projects\Libraries\Znode.WebStore.Core\Agents\Agents\BaseAgent.cs:line 151

Date - 26 Jul 2019 12:07:38
Level - ERROR
UserAgent - Mozilla/5.0 (Windows NT 10.0; Win64; x64; rv:68.0) Gecko/20100101 Firefox/68.0
Message - 
Error Message: An error occurred while executing the command definition. See the inner exception for details.

User Referrer: localhost:3288

Browser Name: Firefox

UserId: 

Logger: Znode.Engine.Api.Client

Debug Object Details: 


Znode.Engine.Exceptions.ZnodeException: An error occurred while executing the command definition. See the inner exception for details.
   at Znode.Engine.Api.Client.BaseClient.CheckStatusAndThrow[T](ApiStatus status, Collection`1 expectedStatusCodes) in D:\Jenkins-Znode\workspace\Znode-NuGet-Project-Build\Projects\Engines\Znode.Engine.Api.Client\Clients\Clients\Shared\BaseClient.cs:line 204
   at Znode.Engine.Api.Client.UserClient.GetAccountByUser(String username) in D:\Jenkins-Znode\workspace\Znode-NuGet-Project-Build\Projects\Engines\Znode.Engine.Api.Client\Clients\Clients\User\UserClient.cs:line 78
   at Znode.Engine.WebStore.BaseAgent.GetUserDetails() in D:\Jenkins-Znode\workspace\Znode-NuGet-Project-Build\Projects\Libraries\Znode.WebStore.Core\Agents\Agents\BaseAgent.cs:line 151

Date - 26 Jul 2019 14:57:05
Level - ERROR
UserAgent - Mozilla/5.0 (Windows NT 10.0; Win64; x64; rv:68.0) Gecko/20100101 Firefox/68.0
Message - 
Error Message: Value cannot be null.
Parameter name: value

User Referrer: localhost:3288

Browser Name: Firefox

UserId: 

Logger: System.Web

Debug Object Details: 


System.ArgumentNullException: Value cannot be null.
Parameter name: value
   at System.Web.Caching.CacheEntry..ctor(String key, Object value, CacheDependency dependency, CacheItemRemovedCallback onRemovedHandler, DateTime utcAbsoluteExpiration, TimeSpan slidingExpiration, CacheItemPriority priority, Boolean isPublic, CacheInternal cache)
   at System.Web.Caching.CacheInternal.DoInsert(Boolean isPublic, String key, Object value, CacheDependency dependencies, DateTime utcAbsoluteExpiration, TimeSpan slidingExpiration, CacheItemPriority priority, CacheItemRemovedCallback onRemoveCallback, Boolean replace)
   at System.Web.Caching.AspNetCache.Insert(String key, Object item, CacheInsertOptions options)
   at Znode.Engine.WebStore.Helper.AddIntoCache[T](T model, String cacheKey) in D:\Jenkins-Znode\workspace\Znode-NuGet-Project-Build\Projects\Libraries\Znode.WebStore.Core\Helpers\Helper.cs:line 149
   at Znode.Engine.WebStore.Agents.WidgetDataAgent.GetContent(WidgetParameter parameter) in D:\Jenkins-Znode\workspace\Znode-NuGet-Project-Build\Projects\Libraries\Znode.WebStore.Core\Agents\Agents\WidgetDataAgent.cs:line 243
   at System.Web.Mvc.Html.HTMLExtensions.TextControl(HtmlHelper htmlHelper, String partialViewName, WidgetParameter widgetparameter) in D:\Jenkins-Znode\workspace\Znode-NuGet-Project-Build\Projects\Libraries\Znode.WebStore.Core\Extensions\HTMLExtensions.cs:line 107
   at ASP._Page_Views_Themes_AWCT_Views_Shared_Widget__WidgetTextEditor_cshtml.Execute() in E:\WorkSpace\AWCT 9.2.1.2\AWCT_9.2.1.2\AWCTMultifront\Projects\Znode.Engine.WebStore\Views\Themes\AWCT\Views\Shared\Widget\_WidgetTextEditor.cshtml:line 3
   at System.Web.WebPages.WebPageBase.ExecutePageHierarchy()
   at System.Web.Mvc.WebViewPage.ExecutePageHierarchy()
   at System.Web.WebPages.WebPageBase.ExecutePageHierarchy(WebPageContext pageContext, TextWriter writer, WebPageRenderingBase startPage)
   at System.Web.Mvc.RazorView.RenderView(ViewContext viewContext, TextWriter writer, Object instance)
   at System.Web.Mvc.BuildManagerCompiledView.Render(ViewContext viewContext, TextWriter writer)
   at System.Web.Mvc.Html.HTMLExtensions.BuildPartial(HtmlHelper htmlHelper, ControllerContext controllerContext, ViewEngineResult viewResult, Object data) in D:\Jenkins-Znode\workspace\Znode-NuGet-Project-Build\Projects\Libraries\Znode.WebStore.Core\Extensions\HTMLExtensions.cs:line 88
   at System.Web.Mvc.Html.HTMLExtensions.GetWidget(HtmlHelper htmlHelper, ControllerContext controllerContext, ViewEngineResult viewResult, WidgetParameter prm) in D:\Jenkins-Znode\workspace\Znode-NuGet-Project-Build\Projects\Libraries\Znode.WebStore.Core\Extensions\HTMLExtensions.cs:line 46
   at System.Web.Mvc.Html.HTMLExtensions.WidgetPartial(HtmlHelper htmlHelper, String widgetCode, String displayName, String widgetKey, String typeOfMapping, Int32 mappingId, Dictionary`2 properties) in D:\Jenkins-Znode\workspace\Znode-NuGet-Project-Build\Projects\Libraries\Znode.WebStore.Core\Extensions\HTMLExtensions.cs:line 39
   at ASP._Page_Views_Shared__WidgetAjax_cshtml.Execute() in E:\WorkSpace\AWCT 9.2.1.2\AWCT_9.2.1.2\AWCTMultifront\Projects\Znode.Engine.WebStore\Views\Shared\_WidgetAjax.cshtml:line 2
   at System.Web.WebPages.WebPageBase.ExecutePageHierarchy()
   at System.Web.Mvc.WebViewPage.ExecutePageHierarchy()
   at System.Web.WebPages.WebPageBase.ExecutePageHierarchy(WebPageContext pageContext, TextWriter writer, WebPageRenderingBase startPage)
   at System.Web.Mvc.RazorView.RenderView(ViewContext viewContext, TextWriter writer, Object instance)
   at System.Web.Mvc.BuildManagerCompiledView.Render(ViewContext viewContext, TextWriter writer)
   at System.Web.Mvc.ViewResultBase.ExecuteResult(ControllerContext context)
   at System.Web.Mvc.ControllerActionInvoker.InvokeActionResult(ControllerContext controllerContext, ActionResult actionResult)
   at System.Web.Mvc.ControllerActionInvoker.InvokeActionResultFilterRecursive(IList`1 filters, Int32 filterIndex, ResultExecutingContext preContext, ControllerContext controllerContext, ActionResult actionResult)
   at System.Web.Mvc.ControllerActionInvoker.InvokeActionResultFilterRecursive(IList`1 filters, Int32 filterIndex, ResultExecutingContext preContext, ControllerContext controllerContext, ActionResult actionResult)
   at System.Web.Mvc.ControllerActionInvoker.InvokeActionResultWithFilters(ControllerContext controllerContext, IList`1 filters, ActionResult actionResult)
   at System.Web.Mvc.Async.AsyncControllerActionInvoker.<>c__DisplayClass21.<>c__DisplayClass2b.<BeginInvokeAction>b__1c()
   at System.Web.Mvc.Async.AsyncControllerActionInvoker.<>c__DisplayClass21.<BeginInvokeAction>b__1e(IAsyncResult asyncResult)

Date - 26 Jul 2019 14:57:21
Level - ERROR
UserAgent - Mozilla/5.0 (Windows NT 10.0; Win64; x64; rv:68.0) Gecko/20100101 Firefox/68.0
Message - 
Error Message: Value cannot be null.
Parameter name: value

User Referrer: localhost:3288

Browser Name: Firefox

UserId: 

Logger: System.Web

Debug Object Details: 


System.ArgumentNullException: Value cannot be null.
Parameter name: value
   at System.Web.Caching.CacheEntry..ctor(String key, Object value, CacheDependency dependency, CacheItemRemovedCallback onRemovedHandler, DateTime utcAbsoluteExpiration, TimeSpan slidingExpiration, CacheItemPriority priority, Boolean isPublic, CacheInternal cache)
   at System.Web.Caching.CacheInternal.DoInsert(Boolean isPublic, String key, Object value, CacheDependency dependencies, DateTime utcAbsoluteExpiration, TimeSpan slidingExpiration, CacheItemPriority priority, CacheItemRemovedCallback onRemoveCallback, Boolean replace)
   at System.Web.Caching.AspNetCache.Insert(String key, Object item, CacheInsertOptions options)
   at Znode.Engine.WebStore.Helper.AddIntoCache[T](T model, String cacheKey) in D:\Jenkins-Znode\workspace\Znode-NuGet-Project-Build\Projects\Libraries\Znode.WebStore.Core\Helpers\Helper.cs:line 149
   at Znode.Engine.WebStore.Agents.WidgetDataAgent.GetContent(WidgetParameter parameter) in D:\Jenkins-Znode\workspace\Znode-NuGet-Project-Build\Projects\Libraries\Znode.WebStore.Core\Agents\Agents\WidgetDataAgent.cs:line 243
   at System.Web.Mvc.Html.HTMLExtensions.TextControl(HtmlHelper htmlHelper, String partialViewName, WidgetParameter widgetparameter) in D:\Jenkins-Znode\workspace\Znode-NuGet-Project-Build\Projects\Libraries\Znode.WebStore.Core\Extensions\HTMLExtensions.cs:line 107
   at ASP._Page_Views_Themes_AWCT_Views_Shared_Widget__WidgetTextEditor_cshtml.Execute() in E:\WorkSpace\AWCT 9.2.1.2\AWCT_9.2.1.2\AWCTMultifront\Projects\Znode.Engine.WebStore\Views\Themes\AWCT\Views\Shared\Widget\_WidgetTextEditor.cshtml:line 3
   at System.Web.WebPages.WebPageBase.ExecutePageHierarchy()
   at System.Web.Mvc.WebViewPage.ExecutePageHierarchy()
   at System.Web.WebPages.WebPageBase.ExecutePageHierarchy(WebPageContext pageContext, TextWriter writer, WebPageRenderingBase startPage)
   at System.Web.Mvc.RazorView.RenderView(ViewContext viewContext, TextWriter writer, Object instance)
   at System.Web.Mvc.BuildManagerCompiledView.Render(ViewContext viewContext, TextWriter writer)
   at System.Web.Mvc.Html.HTMLExtensions.BuildPartial(HtmlHelper htmlHelper, ControllerContext controllerContext, ViewEngineResult viewResult, Object data) in D:\Jenkins-Znode\workspace\Znode-NuGet-Project-Build\Projects\Libraries\Znode.WebStore.Core\Extensions\HTMLExtensions.cs:line 88
   at System.Web.Mvc.Html.HTMLExtensions.GetWidget(HtmlHelper htmlHelper, ControllerContext controllerContext, ViewEngineResult viewResult, WidgetParameter prm) in D:\Jenkins-Znode\workspace\Znode-NuGet-Project-Build\Projects\Libraries\Znode.WebStore.Core\Extensions\HTMLExtensions.cs:line 46
   at System.Web.Mvc.Html.HTMLExtensions.WidgetPartial(HtmlHelper htmlHelper, String widgetCode, String displayName, String widgetKey, String typeOfMapping, Int32 mappingId, Dictionary`2 properties) in D:\Jenkins-Znode\workspace\Znode-NuGet-Project-Build\Projects\Libraries\Znode.WebStore.Core\Extensions\HTMLExtensions.cs:line 39
   at ASP._Page_Views_Shared__WidgetAjax_cshtml.Execute() in E:\WorkSpace\AWCT 9.2.1.2\AWCT_9.2.1.2\AWCTMultifront\Projects\Znode.Engine.WebStore\Views\Shared\_WidgetAjax.cshtml:line 2
   at System.Web.WebPages.WebPageBase.ExecutePageHierarchy()
   at System.Web.Mvc.WebViewPage.ExecutePageHierarchy()
   at System.Web.WebPages.WebPageBase.ExecutePageHierarchy(WebPageContext pageContext, TextWriter writer, WebPageRenderingBase startPage)
   at System.Web.Mvc.RazorView.RenderView(ViewContext viewContext, TextWriter writer, Object instance)
   at System.Web.Mvc.BuildManagerCompiledView.Render(ViewContext viewContext, TextWriter writer)
   at System.Web.Mvc.ViewResultBase.ExecuteResult(ControllerContext context)
   at System.Web.Mvc.ControllerActionInvoker.InvokeActionResult(ControllerContext controllerContext, ActionResult actionResult)
   at System.Web.Mvc.ControllerActionInvoker.InvokeActionResultFilterRecursive(IList`1 filters, Int32 filterIndex, ResultExecutingContext preContext, ControllerContext controllerContext, ActionResult actionResult)
   at System.Web.Mvc.ControllerActionInvoker.InvokeActionResultFilterRecursive(IList`1 filters, Int32 filterIndex, ResultExecutingContext preContext, ControllerContext controllerContext, ActionResult actionResult)
   at System.Web.Mvc.ControllerActionInvoker.InvokeActionResultWithFilters(ControllerContext controllerContext, IList`1 filters, ActionResult actionResult)
   at System.Web.Mvc.Async.AsyncControllerActionInvoker.<>c__DisplayClass21.<>c__DisplayClass2b.<BeginInvokeAction>b__1c()
   at System.Web.Mvc.Async.AsyncControllerActionInvoker.<>c__DisplayClass21.<BeginInvokeAction>b__1e(IAsyncResult asyncResult)

Date - 26 Jul 2019 18:29:20
Level - ERROR
UserAgent - Mozilla/5.0 (Windows NT 10.0; Win64; x64; rv:68.0) Gecko/20100101 Firefox/68.0
Message - 
Error Message: Value cannot be null.
Parameter name: value

User Referrer: localhost:3288

Browser Name: Firefox

UserId: 

Logger: System.Web

Debug Object Details: 


System.ArgumentNullException: Value cannot be null.
Parameter name: value
   at System.Web.Caching.CacheEntry..ctor(String key, Object value, CacheDependency dependency, CacheItemRemovedCallback onRemovedHandler, DateTime utcAbsoluteExpiration, TimeSpan slidingExpiration, CacheItemPriority priority, Boolean isPublic, CacheInternal cache)
   at System.Web.Caching.CacheInternal.DoInsert(Boolean isPublic, String key, Object value, CacheDependency dependencies, DateTime utcAbsoluteExpiration, TimeSpan slidingExpiration, CacheItemPriority priority, CacheItemRemovedCallback onRemoveCallback, Boolean replace)
   at System.Web.Caching.AspNetCache.Insert(String key, Object item, CacheInsertOptions options)
   at Znode.Engine.WebStore.Helper.AddIntoCache[T](T model, String cacheKey) in D:\Jenkins-Znode\workspace\Znode-NuGet-Project-Build\Projects\Libraries\Znode.WebStore.Core\Helpers\Helper.cs:line 149
   at Znode.Engine.WebStore.Agents.WidgetDataAgent.GetContent(WidgetParameter parameter) in D:\Jenkins-Znode\workspace\Znode-NuGet-Project-Build\Projects\Libraries\Znode.WebStore.Core\Agents\Agents\WidgetDataAgent.cs:line 243
   at System.Web.Mvc.Html.HTMLExtensions.TextControl(HtmlHelper htmlHelper, String partialViewName, WidgetParameter widgetparameter) in D:\Jenkins-Znode\workspace\Znode-NuGet-Project-Build\Projects\Libraries\Znode.WebStore.Core\Extensions\HTMLExtensions.cs:line 107
   at ASP._Page_Views_Themes_AWCT_Views_Shared_Widget__WidgetTextEditor_cshtml.Execute() in E:\WorkSpace\AWCT 9.2.1.2\AWCT_9.2.1.2\AWCTMultifront\Projects\Znode.Engine.WebStore\Views\Themes\AWCT\Views\Shared\Widget\_WidgetTextEditor.cshtml:line 3
   at System.Web.WebPages.WebPageBase.ExecutePageHierarchy()
   at System.Web.Mvc.WebViewPage.ExecutePageHierarchy()
   at System.Web.WebPages.WebPageBase.ExecutePageHierarchy(WebPageContext pageContext, TextWriter writer, WebPageRenderingBase startPage)
   at System.Web.Mvc.RazorView.RenderView(ViewContext viewContext, TextWriter writer, Object instance)
   at System.Web.Mvc.BuildManagerCompiledView.Render(ViewContext viewContext, TextWriter writer)
   at System.Web.Mvc.Html.HTMLExtensions.BuildPartial(HtmlHelper htmlHelper, ControllerContext controllerContext, ViewEngineResult viewResult, Object data) in D:\Jenkins-Znode\workspace\Znode-NuGet-Project-Build\Projects\Libraries\Znode.WebStore.Core\Extensions\HTMLExtensions.cs:line 88
   at System.Web.Mvc.Html.HTMLExtensions.GetWidget(HtmlHelper htmlHelper, ControllerContext controllerContext, ViewEngineResult viewResult, WidgetParameter prm) in D:\Jenkins-Znode\workspace\Znode-NuGet-Project-Build\Projects\Libraries\Znode.WebStore.Core\Extensions\HTMLExtensions.cs:line 46
   at System.Web.Mvc.Html.HTMLExtensions.WidgetPartial(HtmlHelper htmlHelper, String widgetCode, String displayName, String widgetKey, String typeOfMapping, Int32 mappingId, Dictionary`2 properties) in D:\Jenkins-Znode\workspace\Znode-NuGet-Project-Build\Projects\Libraries\Znode.WebStore.Core\Extensions\HTMLExtensions.cs:line 39
   at ASP._Page_Views_Shared__WidgetAjax_cshtml.Execute() in E:\WorkSpace\AWCT 9.2.1.2\AWCT_9.2.1.2\AWCTMultifront\Projects\Znode.Engine.WebStore\Views\Shared\_WidgetAjax.cshtml:line 2
   at System.Web.WebPages.WebPageBase.ExecutePageHierarchy()
   at System.Web.Mvc.WebViewPage.ExecutePageHierarchy()
   at System.Web.WebPages.WebPageBase.ExecutePageHierarchy(WebPageContext pageContext, TextWriter writer, WebPageRenderingBase startPage)
   at System.Web.Mvc.RazorView.RenderView(ViewContext viewContext, TextWriter writer, Object instance)
   at System.Web.Mvc.BuildManagerCompiledView.Render(ViewContext viewContext, TextWriter writer)
   at System.Web.Mvc.ViewResultBase.ExecuteResult(ControllerContext context)
   at System.Web.Mvc.ControllerActionInvoker.InvokeActionResult(ControllerContext controllerContext, ActionResult actionResult)
   at System.Web.Mvc.ControllerActionInvoker.InvokeActionResultFilterRecursive(IList`1 filters, Int32 filterIndex, ResultExecutingContext preContext, ControllerContext controllerContext, ActionResult actionResult)
   at System.Web.Mvc.ControllerActionInvoker.InvokeActionResultFilterRecursive(IList`1 filters, Int32 filterIndex, ResultExecutingContext preContext, ControllerContext controllerContext, ActionResult actionResult)
   at System.Web.Mvc.ControllerActionInvoker.InvokeActionResultWithFilters(ControllerContext controllerContext, IList`1 filters, ActionResult actionResult)
   at System.Web.Mvc.Async.AsyncControllerActionInvoker.<>c__DisplayClass21.<>c__DisplayClass2b.<BeginInvokeAction>b__1c()
   at System.Web.Mvc.Async.AsyncControllerActionInvoker.<>c__DisplayClass21.<BeginInvokeAction>b__1e(IAsyncResult asyncResult)

Date - 26 Jul 2019 18:47:31
Level - ERROR
UserAgent - Mozilla/5.0 (Windows NT 10.0; Win64; x64; rv:68.0) Gecko/20100101 Firefox/68.0
Message - 
Error Message: The underlying provider failed on Open.

User Referrer: localhost:3288

Browser Name: Firefox

UserId: 

Logger: Znode.Engine.Api.Client

Debug Object Details: 


Znode.Engine.Exceptions.ZnodeException: The underlying provider failed on Open.
   at Znode.Engine.Api.Client.BaseClient.CheckStatusAndThrow[T](ApiStatus status, Collection`1 expectedStatusCodes) in D:\Jenkins-Znode\workspace\Znode-NuGet-Project-Build\Projects\Engines\Znode.Engine.Api.Client\Clients\Clients\Shared\BaseClient.cs:line 204
   at Znode.Engine.Api.Client.UserClient.GetAccountByUser(String username) in D:\Jenkins-Znode\workspace\Znode-NuGet-Project-Build\Projects\Engines\Znode.Engine.Api.Client\Clients\Clients\User\UserClient.cs:line 78
   at Znode.Engine.WebStore.BaseAgent.GetUserDetails() in D:\Jenkins-Znode\workspace\Znode-NuGet-Project-Build\Projects\Libraries\Znode.WebStore.Core\Agents\Agents\BaseAgent.cs:line 151

Date - 26 Jul 2019 18:54:18
Level - ERROR
UserAgent - Mozilla/5.0 (Windows NT 10.0; Win64; x64; rv:68.0) Gecko/20100101 Firefox/68.0
Message - 
Error Message: The underlying provider failed on Open.

User Referrer: localhost:3288

Browser Name: Firefox

UserId: 

Logger: Znode.Engine.Api.Client

Debug Object Details: 


Znode.Engine.Exceptions.ZnodeException: The underlying provider failed on Open.
   at Znode.Engine.Api.Client.BaseClient.CheckStatusAndThrow[T](ApiStatus status, Collection`1 expectedStatusCodes) in D:\Jenkins-Znode\workspace\Znode-NuGet-Project-Build\Projects\Engines\Znode.Engine.Api.Client\Clients\Clients\Shared\BaseClient.cs:line 204
   at Znode.Engine.Api.Client.UserClient.GetAccountByUser(String username) in D:\Jenkins-Znode\workspace\Znode-NuGet-Project-Build\Projects\Engines\Znode.Engine.Api.Client\Clients\Clients\User\UserClient.cs:line 78
   at Znode.Engine.WebStore.BaseAgent.GetUserDetails() in D:\Jenkins-Znode\workspace\Znode-NuGet-Project-Build\Projects\Libraries\Znode.WebStore.Core\Agents\Agents\BaseAgent.cs:line 151
