
Date - 18 Jul 2019 14:06:06
Level - ERROR
UserAgent - Mozilla/5.0 (Windows NT 10.0; Win64; x64) AppleWebKit/537.36 (KHTML, like Gecko) Chrome/75.0.3770.142 Safari/537.36
Message - 
Error Message: Column "omsQuoteId" does not exist.

User Referrer: localhost:3288

Browser Name: Chrome

UserId: 

Logger: System.Web.Helpers

Debug Object Details: 


System.InvalidOperationException: Column "omsQuoteId" does not exist.
   at System.Web.Helpers.WebGridRow.get_Item(String name)
   at CallSite.Target(Closure , CallSite , Object , String )
   at System.Dynamic.UpdateDelegates.UpdateAndExecute2[T0,T1,TRet](CallSite site, T0 arg0, T1 arg1)
   at Znode.Engine.WebStore.Extensions.ObjectExtension.GetDynamicProperty(Object currentObject, String member, Object row) in D:\Jenkins-Znode\workspace\Znode-NuGet-Project-Build\Projects\Libraries\Znode.WebStore.Core\Extensions\ObjectExtension.cs:line 81

Date - 18 Jul 2019 14:06:06
Level - ERROR
UserAgent - Mozilla/5.0 (Windows NT 10.0; Win64; x64) AppleWebKit/537.36 (KHTML, like Gecko) Chrome/75.0.3770.142 Safari/537.36
Message - 
Error Message: Column "orderStatus" does not exist.

User Referrer: localhost:3288

Browser Name: Chrome

UserId: 

Logger: System.Web.Helpers

Debug Object Details: 


System.InvalidOperationException: Column "orderStatus" does not exist.
   at System.Web.Helpers.WebGridRow.get_Item(String name)
   at CallSite.Target(Closure , CallSite , Object , String )
   at Znode.Engine.WebStore.Extensions.ObjectExtension.GetDynamicProperty(Object currentObject, String member, Object row) in D:\Jenkins-Znode\workspace\Znode-NuGet-Project-Build\Projects\Libraries\Znode.WebStore.Core\Extensions\ObjectExtension.cs:line 81

Date - 18 Jul 2019 14:06:06
Level - ERROR
UserAgent - Mozilla/5.0 (Windows NT 10.0; Win64; x64) AppleWebKit/537.36 (KHTML, like Gecko) Chrome/75.0.3770.142 Safari/537.36
Message - 
Error Message: Column "omsQuoteId" does not exist.

User Referrer: localhost:3288

Browser Name: Chrome

UserId: 

Logger: System.Web.Helpers

Debug Object Details: 


System.InvalidOperationException: Column "omsQuoteId" does not exist.
   at System.Web.Helpers.WebGridRow.get_Item(String name)
   at CallSite.Target(Closure , CallSite , Object , String )
   at Znode.Engine.WebStore.Extensions.ObjectExtension.GetDynamicProperty(Object currentObject, String member, Object row) in D:\Jenkins-Znode\workspace\Znode-NuGet-Project-Build\Projects\Libraries\Znode.WebStore.Core\Extensions\ObjectExtension.cs:line 81

Date - 18 Jul 2019 14:06:06
Level - ERROR
UserAgent - Mozilla/5.0 (Windows NT 10.0; Win64; x64) AppleWebKit/537.36 (KHTML, like Gecko) Chrome/75.0.3770.142 Safari/537.36
Message - 
Error Message: Column "orderStatus" does not exist.

User Referrer: localhost:3288

Browser Name: Chrome

UserId: 

Logger: System.Web.Helpers

Debug Object Details: 


System.InvalidOperationException: Column "orderStatus" does not exist.
   at System.Web.Helpers.WebGridRow.get_Item(String name)
   at CallSite.Target(Closure , CallSite , Object , String )
   at Znode.Engine.WebStore.Extensions.ObjectExtension.GetDynamicProperty(Object currentObject, String member, Object row) in D:\Jenkins-Znode\workspace\Znode-NuGet-Project-Build\Projects\Libraries\Znode.WebStore.Core\Extensions\ObjectExtension.cs:line 81

Date - 18 Jul 2019 14:06:06
Level - ERROR
UserAgent - Mozilla/5.0 (Windows NT 10.0; Win64; x64) AppleWebKit/537.36 (KHTML, like Gecko) Chrome/75.0.3770.142 Safari/537.36
Message - 
Error Message: Column "omsQuoteId" does not exist.

User Referrer: localhost:3288

Browser Name: Chrome

UserId: 

Logger: System.Web.Helpers

Debug Object Details: 


System.InvalidOperationException: Column "omsQuoteId" does not exist.
   at System.Web.Helpers.WebGridRow.get_Item(String name)
   at CallSite.Target(Closure , CallSite , Object , String )
   at Znode.Engine.WebStore.Extensions.ObjectExtension.GetDynamicProperty(Object currentObject, String member, Object row) in D:\Jenkins-Znode\workspace\Znode-NuGet-Project-Build\Projects\Libraries\Znode.WebStore.Core\Extensions\ObjectExtension.cs:line 81

Date - 18 Jul 2019 14:06:06
Level - ERROR
UserAgent - Mozilla/5.0 (Windows NT 10.0; Win64; x64) AppleWebKit/537.36 (KHTML, like Gecko) Chrome/75.0.3770.142 Safari/537.36
Message - 
Error Message: Column "orderStatus" does not exist.

User Referrer: localhost:3288

Browser Name: Chrome

UserId: 

Logger: System.Web.Helpers

Debug Object Details: 


System.InvalidOperationException: Column "orderStatus" does not exist.
   at System.Web.Helpers.WebGridRow.get_Item(String name)
   at CallSite.Target(Closure , CallSite , Object , String )
   at Znode.Engine.WebStore.Extensions.ObjectExtension.GetDynamicProperty(Object currentObject, String member, Object row) in D:\Jenkins-Znode\workspace\Znode-NuGet-Project-Build\Projects\Libraries\Znode.WebStore.Core\Extensions\ObjectExtension.cs:line 81

Date - 18 Jul 2019 14:06:06
Level - ERROR
UserAgent - Mozilla/5.0 (Windows NT 10.0; Win64; x64) AppleWebKit/537.36 (KHTML, like Gecko) Chrome/75.0.3770.142 Safari/537.36
Message - 
Error Message: Column "omsQuoteId" does not exist.

User Referrer: localhost:3288

Browser Name: Chrome

UserId: 

Logger: System.Web.Helpers

Debug Object Details: 


System.InvalidOperationException: Column "omsQuoteId" does not exist.
   at System.Web.Helpers.WebGridRow.get_Item(String name)
   at CallSite.Target(Closure , CallSite , Object , String )
   at Znode.Engine.WebStore.Extensions.ObjectExtension.GetDynamicProperty(Object currentObject, String member, Object row) in D:\Jenkins-Znode\workspace\Znode-NuGet-Project-Build\Projects\Libraries\Znode.WebStore.Core\Extensions\ObjectExtension.cs:line 81

Date - 18 Jul 2019 14:06:06
Level - ERROR
UserAgent - Mozilla/5.0 (Windows NT 10.0; Win64; x64) AppleWebKit/537.36 (KHTML, like Gecko) Chrome/75.0.3770.142 Safari/537.36
Message - 
Error Message: Column "orderStatus" does not exist.

User Referrer: localhost:3288

Browser Name: Chrome

UserId: 

Logger: System.Web.Helpers

Debug Object Details: 


System.InvalidOperationException: Column "orderStatus" does not exist.
   at System.Web.Helpers.WebGridRow.get_Item(String name)
   at CallSite.Target(Closure , CallSite , Object , String )
   at Znode.Engine.WebStore.Extensions.ObjectExtension.GetDynamicProperty(Object currentObject, String member, Object row) in D:\Jenkins-Znode\workspace\Znode-NuGet-Project-Build\Projects\Libraries\Znode.WebStore.Core\Extensions\ObjectExtension.cs:line 81

Date - 18 Jul 2019 14:06:06
Level - ERROR
UserAgent - Mozilla/5.0 (Windows NT 10.0; Win64; x64) AppleWebKit/537.36 (KHTML, like Gecko) Chrome/75.0.3770.142 Safari/537.36
Message - 
Error Message: Column "omsQuoteId" does not exist.

User Referrer: localhost:3288

Browser Name: Chrome

UserId: 

Logger: System.Web.Helpers

Debug Object Details: 


System.InvalidOperationException: Column "omsQuoteId" does not exist.
   at System.Web.Helpers.WebGridRow.get_Item(String name)
   at CallSite.Target(Closure , CallSite , Object , String )
   at Znode.Engine.WebStore.Extensions.ObjectExtension.GetDynamicProperty(Object currentObject, String member, Object row) in D:\Jenkins-Znode\workspace\Znode-NuGet-Project-Build\Projects\Libraries\Znode.WebStore.Core\Extensions\ObjectExtension.cs:line 81

Date - 18 Jul 2019 14:06:06
Level - ERROR
UserAgent - Mozilla/5.0 (Windows NT 10.0; Win64; x64) AppleWebKit/537.36 (KHTML, like Gecko) Chrome/75.0.3770.142 Safari/537.36
Message - 
Error Message: Column "orderStatus" does not exist.

User Referrer: localhost:3288

Browser Name: Chrome

UserId: 

Logger: System.Web.Helpers

Debug Object Details: 


System.InvalidOperationException: Column "orderStatus" does not exist.
   at System.Web.Helpers.WebGridRow.get_Item(String name)
   at CallSite.Target(Closure , CallSite , Object , String )
   at Znode.Engine.WebStore.Extensions.ObjectExtension.GetDynamicProperty(Object currentObject, String member, Object row) in D:\Jenkins-Znode\workspace\Znode-NuGet-Project-Build\Projects\Libraries\Znode.WebStore.Core\Extensions\ObjectExtension.cs:line 81

Date - 18 Jul 2019 14:06:06
Level - ERROR
UserAgent - Mozilla/5.0 (Windows NT 10.0; Win64; x64) AppleWebKit/537.36 (KHTML, like Gecko) Chrome/75.0.3770.142 Safari/537.36
Message - 
Error Message: Column "omsQuoteId" does not exist.

User Referrer: localhost:3288

Browser Name: Chrome

UserId: 

Logger: System.Web.Helpers

Debug Object Details: 


System.InvalidOperationException: Column "omsQuoteId" does not exist.
   at System.Web.Helpers.WebGridRow.get_Item(String name)
   at CallSite.Target(Closure , CallSite , Object , String )
   at Znode.Engine.WebStore.Extensions.ObjectExtension.GetDynamicProperty(Object currentObject, String member, Object row) in D:\Jenkins-Znode\workspace\Znode-NuGet-Project-Build\Projects\Libraries\Znode.WebStore.Core\Extensions\ObjectExtension.cs:line 81

Date - 18 Jul 2019 14:06:06
Level - ERROR
UserAgent - Mozilla/5.0 (Windows NT 10.0; Win64; x64) AppleWebKit/537.36 (KHTML, like Gecko) Chrome/75.0.3770.142 Safari/537.36
Message - 
Error Message: Column "orderStatus" does not exist.

User Referrer: localhost:3288

Browser Name: Chrome

UserId: 

Logger: System.Web.Helpers

Debug Object Details: 


System.InvalidOperationException: Column "orderStatus" does not exist.
   at System.Web.Helpers.WebGridRow.get_Item(String name)
   at CallSite.Target(Closure , CallSite , Object , String )
   at Znode.Engine.WebStore.Extensions.ObjectExtension.GetDynamicProperty(Object currentObject, String member, Object row) in D:\Jenkins-Znode\workspace\Znode-NuGet-Project-Build\Projects\Libraries\Znode.WebStore.Core\Extensions\ObjectExtension.cs:line 81

Date - 18 Jul 2019 14:06:06
Level - ERROR
UserAgent - Mozilla/5.0 (Windows NT 10.0; Win64; x64) AppleWebKit/537.36 (KHTML, like Gecko) Chrome/75.0.3770.142 Safari/537.36
Message - 
Error Message: Column "omsQuoteId" does not exist.

User Referrer: localhost:3288

Browser Name: Chrome

UserId: 

Logger: System.Web.Helpers

Debug Object Details: 


System.InvalidOperationException: Column "omsQuoteId" does not exist.
   at System.Web.Helpers.WebGridRow.get_Item(String name)
   at CallSite.Target(Closure , CallSite , Object , String )
   at Znode.Engine.WebStore.Extensions.ObjectExtension.GetDynamicProperty(Object currentObject, String member, Object row) in D:\Jenkins-Znode\workspace\Znode-NuGet-Project-Build\Projects\Libraries\Znode.WebStore.Core\Extensions\ObjectExtension.cs:line 81

Date - 18 Jul 2019 14:06:06
Level - ERROR
UserAgent - Mozilla/5.0 (Windows NT 10.0; Win64; x64) AppleWebKit/537.36 (KHTML, like Gecko) Chrome/75.0.3770.142 Safari/537.36
Message - 
Error Message: Column "orderStatus" does not exist.

User Referrer: localhost:3288

Browser Name: Chrome

UserId: 

Logger: System.Web.Helpers

Debug Object Details: 


System.InvalidOperationException: Column "orderStatus" does not exist.
   at System.Web.Helpers.WebGridRow.get_Item(String name)
   at CallSite.Target(Closure , CallSite , Object , String )
   at Znode.Engine.WebStore.Extensions.ObjectExtension.GetDynamicProperty(Object currentObject, String member, Object row) in D:\Jenkins-Znode\workspace\Znode-NuGet-Project-Build\Projects\Libraries\Znode.WebStore.Core\Extensions\ObjectExtension.cs:line 81

Date - 18 Jul 2019 14:06:06
Level - ERROR
UserAgent - Mozilla/5.0 (Windows NT 10.0; Win64; x64) AppleWebKit/537.36 (KHTML, like Gecko) Chrome/75.0.3770.142 Safari/537.36
Message - 
Error Message: Column "omsQuoteId" does not exist.

User Referrer: localhost:3288

Browser Name: Chrome

UserId: 

Logger: System.Web.Helpers

Debug Object Details: 


System.InvalidOperationException: Column "omsQuoteId" does not exist.
   at System.Web.Helpers.WebGridRow.get_Item(String name)
   at CallSite.Target(Closure , CallSite , Object , String )
   at Znode.Engine.WebStore.Extensions.ObjectExtension.GetDynamicProperty(Object currentObject, String member, Object row) in D:\Jenkins-Znode\workspace\Znode-NuGet-Project-Build\Projects\Libraries\Znode.WebStore.Core\Extensions\ObjectExtension.cs:line 81

Date - 18 Jul 2019 14:06:06
Level - ERROR
UserAgent - Mozilla/5.0 (Windows NT 10.0; Win64; x64) AppleWebKit/537.36 (KHTML, like Gecko) Chrome/75.0.3770.142 Safari/537.36
Message - 
Error Message: Column "orderStatus" does not exist.

User Referrer: localhost:3288

Browser Name: Chrome

UserId: 

Logger: System.Web.Helpers

Debug Object Details: 


System.InvalidOperationException: Column "orderStatus" does not exist.
   at System.Web.Helpers.WebGridRow.get_Item(String name)
   at CallSite.Target(Closure , CallSite , Object , String )
   at Znode.Engine.WebStore.Extensions.ObjectExtension.GetDynamicProperty(Object currentObject, String member, Object row) in D:\Jenkins-Znode\workspace\Znode-NuGet-Project-Build\Projects\Libraries\Znode.WebStore.Core\Extensions\ObjectExtension.cs:line 81

Date - 18 Jul 2019 14:06:06
Level - ERROR
UserAgent - Mozilla/5.0 (Windows NT 10.0; Win64; x64) AppleWebKit/537.36 (KHTML, like Gecko) Chrome/75.0.3770.142 Safari/537.36
Message - 
Error Message: Column "omsQuoteId" does not exist.

User Referrer: localhost:3288

Browser Name: Chrome

UserId: 

Logger: System.Web.Helpers

Debug Object Details: 


System.InvalidOperationException: Column "omsQuoteId" does not exist.
   at System.Web.Helpers.WebGridRow.get_Item(String name)
   at CallSite.Target(Closure , CallSite , Object , String )
   at Znode.Engine.WebStore.Extensions.ObjectExtension.GetDynamicProperty(Object currentObject, String member, Object row) in D:\Jenkins-Znode\workspace\Znode-NuGet-Project-Build\Projects\Libraries\Znode.WebStore.Core\Extensions\ObjectExtension.cs:line 81

Date - 18 Jul 2019 14:06:06
Level - ERROR
UserAgent - Mozilla/5.0 (Windows NT 10.0; Win64; x64) AppleWebKit/537.36 (KHTML, like Gecko) Chrome/75.0.3770.142 Safari/537.36
Message - 
Error Message: Column "orderStatus" does not exist.

User Referrer: localhost:3288

Browser Name: Chrome

UserId: 

Logger: System.Web.Helpers

Debug Object Details: 


System.InvalidOperationException: Column "orderStatus" does not exist.
   at System.Web.Helpers.WebGridRow.get_Item(String name)
   at CallSite.Target(Closure , CallSite , Object , String )
   at Znode.Engine.WebStore.Extensions.ObjectExtension.GetDynamicProperty(Object currentObject, String member, Object row) in D:\Jenkins-Znode\workspace\Znode-NuGet-Project-Build\Projects\Libraries\Znode.WebStore.Core\Extensions\ObjectExtension.cs:line 81

Date - 18 Jul 2019 14:06:06
Level - ERROR
UserAgent - Mozilla/5.0 (Windows NT 10.0; Win64; x64) AppleWebKit/537.36 (KHTML, like Gecko) Chrome/75.0.3770.142 Safari/537.36
Message - 
Error Message: Column "omsQuoteId" does not exist.

User Referrer: localhost:3288

Browser Name: Chrome

UserId: 

Logger: System.Web.Helpers

Debug Object Details: 


System.InvalidOperationException: Column "omsQuoteId" does not exist.
   at System.Web.Helpers.WebGridRow.get_Item(String name)
   at CallSite.Target(Closure , CallSite , Object , String )
   at Znode.Engine.WebStore.Extensions.ObjectExtension.GetDynamicProperty(Object currentObject, String member, Object row) in D:\Jenkins-Znode\workspace\Znode-NuGet-Project-Build\Projects\Libraries\Znode.WebStore.Core\Extensions\ObjectExtension.cs:line 81

Date - 18 Jul 2019 14:06:06
Level - ERROR
UserAgent - Mozilla/5.0 (Windows NT 10.0; Win64; x64) AppleWebKit/537.36 (KHTML, like Gecko) Chrome/75.0.3770.142 Safari/537.36
Message - 
Error Message: Column "orderStatus" does not exist.

User Referrer: localhost:3288

Browser Name: Chrome

UserId: 

Logger: System.Web.Helpers

Debug Object Details: 


System.InvalidOperationException: Column "orderStatus" does not exist.
   at System.Web.Helpers.WebGridRow.get_Item(String name)
   at CallSite.Target(Closure , CallSite , Object , String )
   at Znode.Engine.WebStore.Extensions.ObjectExtension.GetDynamicProperty(Object currentObject, String member, Object row) in D:\Jenkins-Znode\workspace\Znode-NuGet-Project-Build\Projects\Libraries\Znode.WebStore.Core\Extensions\ObjectExtension.cs:line 81

Date - 18 Jul 2019 14:06:06
Level - ERROR
UserAgent - Mozilla/5.0 (Windows NT 10.0; Win64; x64) AppleWebKit/537.36 (KHTML, like Gecko) Chrome/75.0.3770.142 Safari/537.36
Message - 
Error Message: Column "omsQuoteId" does not exist.

User Referrer: localhost:3288

Browser Name: Chrome

UserId: 

Logger: System.Web.Helpers

Debug Object Details: 


System.InvalidOperationException: Column "omsQuoteId" does not exist.
   at System.Web.Helpers.WebGridRow.get_Item(String name)
   at CallSite.Target(Closure , CallSite , Object , String )
   at Znode.Engine.WebStore.Extensions.ObjectExtension.GetDynamicProperty(Object currentObject, String member, Object row) in D:\Jenkins-Znode\workspace\Znode-NuGet-Project-Build\Projects\Libraries\Znode.WebStore.Core\Extensions\ObjectExtension.cs:line 81

Date - 18 Jul 2019 14:06:06
Level - ERROR
UserAgent - Mozilla/5.0 (Windows NT 10.0; Win64; x64) AppleWebKit/537.36 (KHTML, like Gecko) Chrome/75.0.3770.142 Safari/537.36
Message - 
Error Message: Column "orderStatus" does not exist.

User Referrer: localhost:3288

Browser Name: Chrome

UserId: 

Logger: System.Web.Helpers

Debug Object Details: 


System.InvalidOperationException: Column "orderStatus" does not exist.
   at System.Web.Helpers.WebGridRow.get_Item(String name)
   at CallSite.Target(Closure , CallSite , Object , String )
   at Znode.Engine.WebStore.Extensions.ObjectExtension.GetDynamicProperty(Object currentObject, String member, Object row) in D:\Jenkins-Znode\workspace\Znode-NuGet-Project-Build\Projects\Libraries\Znode.WebStore.Core\Extensions\ObjectExtension.cs:line 81

Date - 18 Jul 2019 14:06:06
Level - ERROR
UserAgent - Mozilla/5.0 (Windows NT 10.0; Win64; x64) AppleWebKit/537.36 (KHTML, like Gecko) Chrome/75.0.3770.142 Safari/537.36
Message - 
Error Message: Column "omsQuoteId" does not exist.

User Referrer: localhost:3288

Browser Name: Chrome

UserId: 

Logger: System.Web.Helpers

Debug Object Details: 


System.InvalidOperationException: Column "omsQuoteId" does not exist.
   at System.Web.Helpers.WebGridRow.get_Item(String name)
   at CallSite.Target(Closure , CallSite , Object , String )
   at Znode.Engine.WebStore.Extensions.ObjectExtension.GetDynamicProperty(Object currentObject, String member, Object row) in D:\Jenkins-Znode\workspace\Znode-NuGet-Project-Build\Projects\Libraries\Znode.WebStore.Core\Extensions\ObjectExtension.cs:line 81

Date - 18 Jul 2019 14:06:06
Level - ERROR
UserAgent - Mozilla/5.0 (Windows NT 10.0; Win64; x64) AppleWebKit/537.36 (KHTML, like Gecko) Chrome/75.0.3770.142 Safari/537.36
Message - 
Error Message: Column "orderStatus" does not exist.

User Referrer: localhost:3288

Browser Name: Chrome

UserId: 

Logger: System.Web.Helpers

Debug Object Details: 


System.InvalidOperationException: Column "orderStatus" does not exist.
   at System.Web.Helpers.WebGridRow.get_Item(String name)
   at CallSite.Target(Closure , CallSite , Object , String )
   at Znode.Engine.WebStore.Extensions.ObjectExtension.GetDynamicProperty(Object currentObject, String member, Object row) in D:\Jenkins-Znode\workspace\Znode-NuGet-Project-Build\Projects\Libraries\Znode.WebStore.Core\Extensions\ObjectExtension.cs:line 81

Date - 18 Jul 2019 14:06:06
Level - ERROR
UserAgent - Mozilla/5.0 (Windows NT 10.0; Win64; x64) AppleWebKit/537.36 (KHTML, like Gecko) Chrome/75.0.3770.142 Safari/537.36
Message - 
Error Message: Column "omsQuoteId" does not exist.

User Referrer: localhost:3288

Browser Name: Chrome

UserId: 

Logger: System.Web.Helpers

Debug Object Details: 


System.InvalidOperationException: Column "omsQuoteId" does not exist.
   at System.Web.Helpers.WebGridRow.get_Item(String name)
   at CallSite.Target(Closure , CallSite , Object , String )
   at Znode.Engine.WebStore.Extensions.ObjectExtension.GetDynamicProperty(Object currentObject, String member, Object row) in D:\Jenkins-Znode\workspace\Znode-NuGet-Project-Build\Projects\Libraries\Znode.WebStore.Core\Extensions\ObjectExtension.cs:line 81

Date - 18 Jul 2019 14:06:06
Level - ERROR
UserAgent - Mozilla/5.0 (Windows NT 10.0; Win64; x64) AppleWebKit/537.36 (KHTML, like Gecko) Chrome/75.0.3770.142 Safari/537.36
Message - 
Error Message: Column "orderStatus" does not exist.

User Referrer: localhost:3288

Browser Name: Chrome

UserId: 

Logger: System.Web.Helpers

Debug Object Details: 


System.InvalidOperationException: Column "orderStatus" does not exist.
   at System.Web.Helpers.WebGridRow.get_Item(String name)
   at CallSite.Target(Closure , CallSite , Object , String )
   at Znode.Engine.WebStore.Extensions.ObjectExtension.GetDynamicProperty(Object currentObject, String member, Object row) in D:\Jenkins-Znode\workspace\Znode-NuGet-Project-Build\Projects\Libraries\Znode.WebStore.Core\Extensions\ObjectExtension.cs:line 81

Date - 18 Jul 2019 14:06:06
Level - ERROR
UserAgent - Mozilla/5.0 (Windows NT 10.0; Win64; x64) AppleWebKit/537.36 (KHTML, like Gecko) Chrome/75.0.3770.142 Safari/537.36
Message - 
Error Message: Column "omsQuoteId" does not exist.

User Referrer: localhost:3288

Browser Name: Chrome

UserId: 

Logger: System.Web.Helpers

Debug Object Details: 


System.InvalidOperationException: Column "omsQuoteId" does not exist.
   at System.Web.Helpers.WebGridRow.get_Item(String name)
   at CallSite.Target(Closure , CallSite , Object , String )
   at Znode.Engine.WebStore.Extensions.ObjectExtension.GetDynamicProperty(Object currentObject, String member, Object row) in D:\Jenkins-Znode\workspace\Znode-NuGet-Project-Build\Projects\Libraries\Znode.WebStore.Core\Extensions\ObjectExtension.cs:line 81

Date - 18 Jul 2019 14:06:06
Level - ERROR
UserAgent - Mozilla/5.0 (Windows NT 10.0; Win64; x64) AppleWebKit/537.36 (KHTML, like Gecko) Chrome/75.0.3770.142 Safari/537.36
Message - 
Error Message: Column "orderStatus" does not exist.

User Referrer: localhost:3288

Browser Name: Chrome

UserId: 

Logger: System.Web.Helpers

Debug Object Details: 


System.InvalidOperationException: Column "orderStatus" does not exist.
   at System.Web.Helpers.WebGridRow.get_Item(String name)
   at CallSite.Target(Closure , CallSite , Object , String )
   at Znode.Engine.WebStore.Extensions.ObjectExtension.GetDynamicProperty(Object currentObject, String member, Object row) in D:\Jenkins-Znode\workspace\Znode-NuGet-Project-Build\Projects\Libraries\Znode.WebStore.Core\Extensions\ObjectExtension.cs:line 81

Date - 18 Jul 2019 14:06:06
Level - ERROR
UserAgent - Mozilla/5.0 (Windows NT 10.0; Win64; x64) AppleWebKit/537.36 (KHTML, like Gecko) Chrome/75.0.3770.142 Safari/537.36
Message - 
Error Message: Column "omsQuoteId" does not exist.

User Referrer: localhost:3288

Browser Name: Chrome

UserId: 

Logger: System.Web.Helpers

Debug Object Details: 


System.InvalidOperationException: Column "omsQuoteId" does not exist.
   at System.Web.Helpers.WebGridRow.get_Item(String name)
   at CallSite.Target(Closure , CallSite , Object , String )
   at Znode.Engine.WebStore.Extensions.ObjectExtension.GetDynamicProperty(Object currentObject, String member, Object row) in D:\Jenkins-Znode\workspace\Znode-NuGet-Project-Build\Projects\Libraries\Znode.WebStore.Core\Extensions\ObjectExtension.cs:line 81

Date - 18 Jul 2019 14:06:06
Level - ERROR
UserAgent - Mozilla/5.0 (Windows NT 10.0; Win64; x64) AppleWebKit/537.36 (KHTML, like Gecko) Chrome/75.0.3770.142 Safari/537.36
Message - 
Error Message: Column "orderStatus" does not exist.

User Referrer: localhost:3288

Browser Name: Chrome

UserId: 

Logger: System.Web.Helpers

Debug Object Details: 


System.InvalidOperationException: Column "orderStatus" does not exist.
   at System.Web.Helpers.WebGridRow.get_Item(String name)
   at CallSite.Target(Closure , CallSite , Object , String )
   at Znode.Engine.WebStore.Extensions.ObjectExtension.GetDynamicProperty(Object currentObject, String member, Object row) in D:\Jenkins-Znode\workspace\Znode-NuGet-Project-Build\Projects\Libraries\Znode.WebStore.Core\Extensions\ObjectExtension.cs:line 81

Date - 18 Jul 2019 14:06:06
Level - ERROR
UserAgent - Mozilla/5.0 (Windows NT 10.0; Win64; x64) AppleWebKit/537.36 (KHTML, like Gecko) Chrome/75.0.3770.142 Safari/537.36
Message - 
Error Message: Column "omsQuoteId" does not exist.

User Referrer: localhost:3288

Browser Name: Chrome

UserId: 

Logger: System.Web.Helpers

Debug Object Details: 


System.InvalidOperationException: Column "omsQuoteId" does not exist.
   at System.Web.Helpers.WebGridRow.get_Item(String name)
   at CallSite.Target(Closure , CallSite , Object , String )
   at Znode.Engine.WebStore.Extensions.ObjectExtension.GetDynamicProperty(Object currentObject, String member, Object row) in D:\Jenkins-Znode\workspace\Znode-NuGet-Project-Build\Projects\Libraries\Znode.WebStore.Core\Extensions\ObjectExtension.cs:line 81

Date - 18 Jul 2019 14:06:06
Level - ERROR
UserAgent - Mozilla/5.0 (Windows NT 10.0; Win64; x64) AppleWebKit/537.36 (KHTML, like Gecko) Chrome/75.0.3770.142 Safari/537.36
Message - 
Error Message: Column "orderStatus" does not exist.

User Referrer: localhost:3288

Browser Name: Chrome

UserId: 

Logger: System.Web.Helpers

Debug Object Details: 


System.InvalidOperationException: Column "orderStatus" does not exist.
   at System.Web.Helpers.WebGridRow.get_Item(String name)
   at CallSite.Target(Closure , CallSite , Object , String )
   at Znode.Engine.WebStore.Extensions.ObjectExtension.GetDynamicProperty(Object currentObject, String member, Object row) in D:\Jenkins-Znode\workspace\Znode-NuGet-Project-Build\Projects\Libraries\Znode.WebStore.Core\Extensions\ObjectExtension.cs:line 81

Date - 18 Jul 2019 14:06:06
Level - ERROR
UserAgent - Mozilla/5.0 (Windows NT 10.0; Win64; x64) AppleWebKit/537.36 (KHTML, like Gecko) Chrome/75.0.3770.142 Safari/537.36
Message - 
Error Message: Column "omsQuoteId" does not exist.

User Referrer: localhost:3288

Browser Name: Chrome

UserId: 

Logger: System.Web.Helpers

Debug Object Details: 


System.InvalidOperationException: Column "omsQuoteId" does not exist.
   at System.Web.Helpers.WebGridRow.get_Item(String name)
   at CallSite.Target(Closure , CallSite , Object , String )
   at Znode.Engine.WebStore.Extensions.ObjectExtension.GetDynamicProperty(Object currentObject, String member, Object row) in D:\Jenkins-Znode\workspace\Znode-NuGet-Project-Build\Projects\Libraries\Znode.WebStore.Core\Extensions\ObjectExtension.cs:line 81

Date - 18 Jul 2019 14:06:06
Level - ERROR
UserAgent - Mozilla/5.0 (Windows NT 10.0; Win64; x64) AppleWebKit/537.36 (KHTML, like Gecko) Chrome/75.0.3770.142 Safari/537.36
Message - 
Error Message: Column "orderStatus" does not exist.

User Referrer: localhost:3288

Browser Name: Chrome

UserId: 

Logger: System.Web.Helpers

Debug Object Details: 


System.InvalidOperationException: Column "orderStatus" does not exist.
   at System.Web.Helpers.WebGridRow.get_Item(String name)
   at CallSite.Target(Closure , CallSite , Object , String )
   at Znode.Engine.WebStore.Extensions.ObjectExtension.GetDynamicProperty(Object currentObject, String member, Object row) in D:\Jenkins-Znode\workspace\Znode-NuGet-Project-Build\Projects\Libraries\Znode.WebStore.Core\Extensions\ObjectExtension.cs:line 81

Date - 18 Jul 2019 14:06:06
Level - ERROR
UserAgent - Mozilla/5.0 (Windows NT 10.0; Win64; x64) AppleWebKit/537.36 (KHTML, like Gecko) Chrome/75.0.3770.142 Safari/537.36
Message - 
Error Message: Column "omsQuoteId" does not exist.

User Referrer: localhost:3288

Browser Name: Chrome

UserId: 

Logger: System.Web.Helpers

Debug Object Details: 


System.InvalidOperationException: Column "omsQuoteId" does not exist.
   at System.Web.Helpers.WebGridRow.get_Item(String name)
   at CallSite.Target(Closure , CallSite , Object , String )
   at Znode.Engine.WebStore.Extensions.ObjectExtension.GetDynamicProperty(Object currentObject, String member, Object row) in D:\Jenkins-Znode\workspace\Znode-NuGet-Project-Build\Projects\Libraries\Znode.WebStore.Core\Extensions\ObjectExtension.cs:line 81

Date - 18 Jul 2019 14:06:06
Level - ERROR
UserAgent - Mozilla/5.0 (Windows NT 10.0; Win64; x64) AppleWebKit/537.36 (KHTML, like Gecko) Chrome/75.0.3770.142 Safari/537.36
Message - 
Error Message: Column "orderStatus" does not exist.

User Referrer: localhost:3288

Browser Name: Chrome

UserId: 

Logger: System.Web.Helpers

Debug Object Details: 


System.InvalidOperationException: Column "orderStatus" does not exist.
   at System.Web.Helpers.WebGridRow.get_Item(String name)
   at CallSite.Target(Closure , CallSite , Object , String )
   at Znode.Engine.WebStore.Extensions.ObjectExtension.GetDynamicProperty(Object currentObject, String member, Object row) in D:\Jenkins-Znode\workspace\Znode-NuGet-Project-Build\Projects\Libraries\Znode.WebStore.Core\Extensions\ObjectExtension.cs:line 81

Date - 18 Jul 2019 14:06:07
Level - ERROR
UserAgent - Mozilla/5.0 (Windows NT 10.0; Win64; x64) AppleWebKit/537.36 (KHTML, like Gecko) Chrome/75.0.3770.142 Safari/537.36
Message - 
Error Message: Column "omsQuoteId" does not exist.

User Referrer: localhost:3288

Browser Name: Chrome

UserId: 

Logger: System.Web.Helpers

Debug Object Details: 


System.InvalidOperationException: Column "omsQuoteId" does not exist.
   at System.Web.Helpers.WebGridRow.get_Item(String name)
   at CallSite.Target(Closure , CallSite , Object , String )
   at Znode.Engine.WebStore.Extensions.ObjectExtension.GetDynamicProperty(Object currentObject, String member, Object row) in D:\Jenkins-Znode\workspace\Znode-NuGet-Project-Build\Projects\Libraries\Znode.WebStore.Core\Extensions\ObjectExtension.cs:line 81

Date - 18 Jul 2019 14:06:07
Level - ERROR
UserAgent - Mozilla/5.0 (Windows NT 10.0; Win64; x64) AppleWebKit/537.36 (KHTML, like Gecko) Chrome/75.0.3770.142 Safari/537.36
Message - 
Error Message: Column "orderStatus" does not exist.

User Referrer: localhost:3288

Browser Name: Chrome

UserId: 

Logger: System.Web.Helpers

Debug Object Details: 


System.InvalidOperationException: Column "orderStatus" does not exist.
   at System.Web.Helpers.WebGridRow.get_Item(String name)
   at CallSite.Target(Closure , CallSite , Object , String )
   at Znode.Engine.WebStore.Extensions.ObjectExtension.GetDynamicProperty(Object currentObject, String member, Object row) in D:\Jenkins-Znode\workspace\Znode-NuGet-Project-Build\Projects\Libraries\Znode.WebStore.Core\Extensions\ObjectExtension.cs:line 81

Date - 18 Jul 2019 14:06:07
Level - ERROR
UserAgent - Mozilla/5.0 (Windows NT 10.0; Win64; x64) AppleWebKit/537.36 (KHTML, like Gecko) Chrome/75.0.3770.142 Safari/537.36
Message - 
Error Message: Column "omsQuoteId" does not exist.

User Referrer: localhost:3288

Browser Name: Chrome

UserId: 

Logger: System.Web.Helpers

Debug Object Details: 


System.InvalidOperationException: Column "omsQuoteId" does not exist.
   at System.Web.Helpers.WebGridRow.get_Item(String name)
   at CallSite.Target(Closure , CallSite , Object , String )
   at Znode.Engine.WebStore.Extensions.ObjectExtension.GetDynamicProperty(Object currentObject, String member, Object row) in D:\Jenkins-Znode\workspace\Znode-NuGet-Project-Build\Projects\Libraries\Znode.WebStore.Core\Extensions\ObjectExtension.cs:line 81

Date - 18 Jul 2019 14:06:07
Level - ERROR
UserAgent - Mozilla/5.0 (Windows NT 10.0; Win64; x64) AppleWebKit/537.36 (KHTML, like Gecko) Chrome/75.0.3770.142 Safari/537.36
Message - 
Error Message: Column "orderStatus" does not exist.

User Referrer: localhost:3288

Browser Name: Chrome

UserId: 

Logger: System.Web.Helpers

Debug Object Details: 


System.InvalidOperationException: Column "orderStatus" does not exist.
   at System.Web.Helpers.WebGridRow.get_Item(String name)
   at CallSite.Target(Closure , CallSite , Object , String )
   at Znode.Engine.WebStore.Extensions.ObjectExtension.GetDynamicProperty(Object currentObject, String member, Object row) in D:\Jenkins-Znode\workspace\Znode-NuGet-Project-Build\Projects\Libraries\Znode.WebStore.Core\Extensions\ObjectExtension.cs:line 81

Date - 18 Jul 2019 14:06:07
Level - ERROR
UserAgent - Mozilla/5.0 (Windows NT 10.0; Win64; x64) AppleWebKit/537.36 (KHTML, like Gecko) Chrome/75.0.3770.142 Safari/537.36
Message - 
Error Message: Column "omsQuoteId" does not exist.

User Referrer: localhost:3288

Browser Name: Chrome

UserId: 

Logger: System.Web.Helpers

Debug Object Details: 


System.InvalidOperationException: Column "omsQuoteId" does not exist.
   at System.Web.Helpers.WebGridRow.get_Item(String name)
   at CallSite.Target(Closure , CallSite , Object , String )
   at Znode.Engine.WebStore.Extensions.ObjectExtension.GetDynamicProperty(Object currentObject, String member, Object row) in D:\Jenkins-Znode\workspace\Znode-NuGet-Project-Build\Projects\Libraries\Znode.WebStore.Core\Extensions\ObjectExtension.cs:line 81

Date - 18 Jul 2019 14:06:07
Level - ERROR
UserAgent - Mozilla/5.0 (Windows NT 10.0; Win64; x64) AppleWebKit/537.36 (KHTML, like Gecko) Chrome/75.0.3770.142 Safari/537.36
Message - 
Error Message: Column "orderStatus" does not exist.

User Referrer: localhost:3288

Browser Name: Chrome

UserId: 

Logger: System.Web.Helpers

Debug Object Details: 


System.InvalidOperationException: Column "orderStatus" does not exist.
   at System.Web.Helpers.WebGridRow.get_Item(String name)
   at CallSite.Target(Closure , CallSite , Object , String )
   at Znode.Engine.WebStore.Extensions.ObjectExtension.GetDynamicProperty(Object currentObject, String member, Object row) in D:\Jenkins-Znode\workspace\Znode-NuGet-Project-Build\Projects\Libraries\Znode.WebStore.Core\Extensions\ObjectExtension.cs:line 81

Date - 18 Jul 2019 14:06:07
Level - ERROR
UserAgent - Mozilla/5.0 (Windows NT 10.0; Win64; x64) AppleWebKit/537.36 (KHTML, like Gecko) Chrome/75.0.3770.142 Safari/537.36
Message - 
Error Message: Column "omsQuoteId" does not exist.

User Referrer: localhost:3288

Browser Name: Chrome

UserId: 

Logger: System.Web.Helpers

Debug Object Details: 


System.InvalidOperationException: Column "omsQuoteId" does not exist.
   at System.Web.Helpers.WebGridRow.get_Item(String name)
   at CallSite.Target(Closure , CallSite , Object , String )
   at Znode.Engine.WebStore.Extensions.ObjectExtension.GetDynamicProperty(Object currentObject, String member, Object row) in D:\Jenkins-Znode\workspace\Znode-NuGet-Project-Build\Projects\Libraries\Znode.WebStore.Core\Extensions\ObjectExtension.cs:line 81

Date - 18 Jul 2019 14:06:07
Level - ERROR
UserAgent - Mozilla/5.0 (Windows NT 10.0; Win64; x64) AppleWebKit/537.36 (KHTML, like Gecko) Chrome/75.0.3770.142 Safari/537.36
Message - 
Error Message: Column "orderStatus" does not exist.

User Referrer: localhost:3288

Browser Name: Chrome

UserId: 

Logger: System.Web.Helpers

Debug Object Details: 


System.InvalidOperationException: Column "orderStatus" does not exist.
   at System.Web.Helpers.WebGridRow.get_Item(String name)
   at CallSite.Target(Closure , CallSite , Object , String )
   at Znode.Engine.WebStore.Extensions.ObjectExtension.GetDynamicProperty(Object currentObject, String member, Object row) in D:\Jenkins-Znode\workspace\Znode-NuGet-Project-Build\Projects\Libraries\Znode.WebStore.Core\Extensions\ObjectExtension.cs:line 81

Date - 18 Jul 2019 14:06:07
Level - ERROR
UserAgent - Mozilla/5.0 (Windows NT 10.0; Win64; x64) AppleWebKit/537.36 (KHTML, like Gecko) Chrome/75.0.3770.142 Safari/537.36
Message - 
Error Message: Column "omsQuoteId" does not exist.

User Referrer: localhost:3288

Browser Name: Chrome

UserId: 

Logger: System.Web.Helpers

Debug Object Details: 


System.InvalidOperationException: Column "omsQuoteId" does not exist.
   at System.Web.Helpers.WebGridRow.get_Item(String name)
   at CallSite.Target(Closure , CallSite , Object , String )
   at Znode.Engine.WebStore.Extensions.ObjectExtension.GetDynamicProperty(Object currentObject, String member, Object row) in D:\Jenkins-Znode\workspace\Znode-NuGet-Project-Build\Projects\Libraries\Znode.WebStore.Core\Extensions\ObjectExtension.cs:line 81

Date - 18 Jul 2019 14:06:07
Level - ERROR
UserAgent - Mozilla/5.0 (Windows NT 10.0; Win64; x64) AppleWebKit/537.36 (KHTML, like Gecko) Chrome/75.0.3770.142 Safari/537.36
Message - 
Error Message: Column "orderStatus" does not exist.

User Referrer: localhost:3288

Browser Name: Chrome

UserId: 

Logger: System.Web.Helpers

Debug Object Details: 


System.InvalidOperationException: Column "orderStatus" does not exist.
   at System.Web.Helpers.WebGridRow.get_Item(String name)
   at CallSite.Target(Closure , CallSite , Object , String )
   at Znode.Engine.WebStore.Extensions.ObjectExtension.GetDynamicProperty(Object currentObject, String member, Object row) in D:\Jenkins-Znode\workspace\Znode-NuGet-Project-Build\Projects\Libraries\Znode.WebStore.Core\Extensions\ObjectExtension.cs:line 81

Date - 18 Jul 2019 14:06:07
Level - ERROR
UserAgent - Mozilla/5.0 (Windows NT 10.0; Win64; x64) AppleWebKit/537.36 (KHTML, like Gecko) Chrome/75.0.3770.142 Safari/537.36
Message - 
Error Message: Column "omsQuoteId" does not exist.

User Referrer: localhost:3288

Browser Name: Chrome

UserId: 

Logger: System.Web.Helpers

Debug Object Details: 


System.InvalidOperationException: Column "omsQuoteId" does not exist.
   at System.Web.Helpers.WebGridRow.get_Item(String name)
   at CallSite.Target(Closure , CallSite , Object , String )
   at Znode.Engine.WebStore.Extensions.ObjectExtension.GetDynamicProperty(Object currentObject, String member, Object row) in D:\Jenkins-Znode\workspace\Znode-NuGet-Project-Build\Projects\Libraries\Znode.WebStore.Core\Extensions\ObjectExtension.cs:line 81

Date - 18 Jul 2019 14:06:07
Level - ERROR
UserAgent - Mozilla/5.0 (Windows NT 10.0; Win64; x64) AppleWebKit/537.36 (KHTML, like Gecko) Chrome/75.0.3770.142 Safari/537.36
Message - 
Error Message: Column "orderStatus" does not exist.

User Referrer: localhost:3288

Browser Name: Chrome

UserId: 

Logger: System.Web.Helpers

Debug Object Details: 


System.InvalidOperationException: Column "orderStatus" does not exist.
   at System.Web.Helpers.WebGridRow.get_Item(String name)
   at CallSite.Target(Closure , CallSite , Object , String )
   at Znode.Engine.WebStore.Extensions.ObjectExtension.GetDynamicProperty(Object currentObject, String member, Object row) in D:\Jenkins-Znode\workspace\Znode-NuGet-Project-Build\Projects\Libraries\Znode.WebStore.Core\Extensions\ObjectExtension.cs:line 81

Date - 18 Jul 2019 14:06:07
Level - ERROR
UserAgent - Mozilla/5.0 (Windows NT 10.0; Win64; x64) AppleWebKit/537.36 (KHTML, like Gecko) Chrome/75.0.3770.142 Safari/537.36
Message - 
Error Message: Column "omsQuoteId" does not exist.

User Referrer: localhost:3288

Browser Name: Chrome

UserId: 

Logger: System.Web.Helpers

Debug Object Details: 


System.InvalidOperationException: Column "omsQuoteId" does not exist.
   at System.Web.Helpers.WebGridRow.get_Item(String name)
   at CallSite.Target(Closure , CallSite , Object , String )
   at Znode.Engine.WebStore.Extensions.ObjectExtension.GetDynamicProperty(Object currentObject, String member, Object row) in D:\Jenkins-Znode\workspace\Znode-NuGet-Project-Build\Projects\Libraries\Znode.WebStore.Core\Extensions\ObjectExtension.cs:line 81

Date - 18 Jul 2019 14:06:07
Level - ERROR
UserAgent - Mozilla/5.0 (Windows NT 10.0; Win64; x64) AppleWebKit/537.36 (KHTML, like Gecko) Chrome/75.0.3770.142 Safari/537.36
Message - 
Error Message: Column "orderStatus" does not exist.

User Referrer: localhost:3288

Browser Name: Chrome

UserId: 

Logger: System.Web.Helpers

Debug Object Details: 


System.InvalidOperationException: Column "orderStatus" does not exist.
   at System.Web.Helpers.WebGridRow.get_Item(String name)
   at CallSite.Target(Closure , CallSite , Object , String )
   at Znode.Engine.WebStore.Extensions.ObjectExtension.GetDynamicProperty(Object currentObject, String member, Object row) in D:\Jenkins-Znode\workspace\Znode-NuGet-Project-Build\Projects\Libraries\Znode.WebStore.Core\Extensions\ObjectExtension.cs:line 81

Date - 18 Jul 2019 14:06:07
Level - ERROR
UserAgent - Mozilla/5.0 (Windows NT 10.0; Win64; x64) AppleWebKit/537.36 (KHTML, like Gecko) Chrome/75.0.3770.142 Safari/537.36
Message - 
Error Message: Column "omsQuoteId" does not exist.

User Referrer: localhost:3288

Browser Name: Chrome

UserId: 

Logger: System.Web.Helpers

Debug Object Details: 


System.InvalidOperationException: Column "omsQuoteId" does not exist.
   at System.Web.Helpers.WebGridRow.get_Item(String name)
   at CallSite.Target(Closure , CallSite , Object , String )
   at Znode.Engine.WebStore.Extensions.ObjectExtension.GetDynamicProperty(Object currentObject, String member, Object row) in D:\Jenkins-Znode\workspace\Znode-NuGet-Project-Build\Projects\Libraries\Znode.WebStore.Core\Extensions\ObjectExtension.cs:line 81

Date - 18 Jul 2019 14:06:07
Level - ERROR
UserAgent - Mozilla/5.0 (Windows NT 10.0; Win64; x64) AppleWebKit/537.36 (KHTML, like Gecko) Chrome/75.0.3770.142 Safari/537.36
Message - 
Error Message: Column "orderStatus" does not exist.

User Referrer: localhost:3288

Browser Name: Chrome

UserId: 

Logger: System.Web.Helpers

Debug Object Details: 


System.InvalidOperationException: Column "orderStatus" does not exist.
   at System.Web.Helpers.WebGridRow.get_Item(String name)
   at CallSite.Target(Closure , CallSite , Object , String )
   at Znode.Engine.WebStore.Extensions.ObjectExtension.GetDynamicProperty(Object currentObject, String member, Object row) in D:\Jenkins-Znode\workspace\Znode-NuGet-Project-Build\Projects\Libraries\Znode.WebStore.Core\Extensions\ObjectExtension.cs:line 81

Date - 18 Jul 2019 14:06:07
Level - ERROR
UserAgent - Mozilla/5.0 (Windows NT 10.0; Win64; x64) AppleWebKit/537.36 (KHTML, like Gecko) Chrome/75.0.3770.142 Safari/537.36
Message - 
Error Message: Column "omsQuoteId" does not exist.

User Referrer: localhost:3288

Browser Name: Chrome

UserId: 

Logger: System.Web.Helpers

Debug Object Details: 


System.InvalidOperationException: Column "omsQuoteId" does not exist.
   at System.Web.Helpers.WebGridRow.get_Item(String name)
   at CallSite.Target(Closure , CallSite , Object , String )
   at Znode.Engine.WebStore.Extensions.ObjectExtension.GetDynamicProperty(Object currentObject, String member, Object row) in D:\Jenkins-Znode\workspace\Znode-NuGet-Project-Build\Projects\Libraries\Znode.WebStore.Core\Extensions\ObjectExtension.cs:line 81

Date - 18 Jul 2019 14:06:07
Level - ERROR
UserAgent - Mozilla/5.0 (Windows NT 10.0; Win64; x64) AppleWebKit/537.36 (KHTML, like Gecko) Chrome/75.0.3770.142 Safari/537.36
Message - 
Error Message: Column "orderStatus" does not exist.

User Referrer: localhost:3288

Browser Name: Chrome

UserId: 

Logger: System.Web.Helpers

Debug Object Details: 


System.InvalidOperationException: Column "orderStatus" does not exist.
   at System.Web.Helpers.WebGridRow.get_Item(String name)
   at CallSite.Target(Closure , CallSite , Object , String )
   at Znode.Engine.WebStore.Extensions.ObjectExtension.GetDynamicProperty(Object currentObject, String member, Object row) in D:\Jenkins-Znode\workspace\Znode-NuGet-Project-Build\Projects\Libraries\Znode.WebStore.Core\Extensions\ObjectExtension.cs:line 81

Date - 18 Jul 2019 14:06:07
Level - ERROR
UserAgent - Mozilla/5.0 (Windows NT 10.0; Win64; x64) AppleWebKit/537.36 (KHTML, like Gecko) Chrome/75.0.3770.142 Safari/537.36
Message - 
Error Message: Column "omsQuoteId" does not exist.

User Referrer: localhost:3288

Browser Name: Chrome

UserId: 

Logger: System.Web.Helpers

Debug Object Details: 


System.InvalidOperationException: Column "omsQuoteId" does not exist.
   at System.Web.Helpers.WebGridRow.get_Item(String name)
   at CallSite.Target(Closure , CallSite , Object , String )
   at Znode.Engine.WebStore.Extensions.ObjectExtension.GetDynamicProperty(Object currentObject, String member, Object row) in D:\Jenkins-Znode\workspace\Znode-NuGet-Project-Build\Projects\Libraries\Znode.WebStore.Core\Extensions\ObjectExtension.cs:line 81

Date - 18 Jul 2019 14:06:07
Level - ERROR
UserAgent - Mozilla/5.0 (Windows NT 10.0; Win64; x64) AppleWebKit/537.36 (KHTML, like Gecko) Chrome/75.0.3770.142 Safari/537.36
Message - 
Error Message: Column "orderStatus" does not exist.

User Referrer: localhost:3288

Browser Name: Chrome

UserId: 

Logger: System.Web.Helpers

Debug Object Details: 


System.InvalidOperationException: Column "orderStatus" does not exist.
   at System.Web.Helpers.WebGridRow.get_Item(String name)
   at CallSite.Target(Closure , CallSite , Object , String )
   at Znode.Engine.WebStore.Extensions.ObjectExtension.GetDynamicProperty(Object currentObject, String member, Object row) in D:\Jenkins-Znode\workspace\Znode-NuGet-Project-Build\Projects\Libraries\Znode.WebStore.Core\Extensions\ObjectExtension.cs:line 81

Date - 18 Jul 2019 14:06:07
Level - ERROR
UserAgent - Mozilla/5.0 (Windows NT 10.0; Win64; x64) AppleWebKit/537.36 (KHTML, like Gecko) Chrome/75.0.3770.142 Safari/537.36
Message - 
Error Message: Column "omsQuoteId" does not exist.

User Referrer: localhost:3288

Browser Name: Chrome

UserId: 

Logger: System.Web.Helpers

Debug Object Details: 


System.InvalidOperationException: Column "omsQuoteId" does not exist.
   at System.Web.Helpers.WebGridRow.get_Item(String name)
   at CallSite.Target(Closure , CallSite , Object , String )
   at Znode.Engine.WebStore.Extensions.ObjectExtension.GetDynamicProperty(Object currentObject, String member, Object row) in D:\Jenkins-Znode\workspace\Znode-NuGet-Project-Build\Projects\Libraries\Znode.WebStore.Core\Extensions\ObjectExtension.cs:line 81

Date - 18 Jul 2019 14:06:07
Level - ERROR
UserAgent - Mozilla/5.0 (Windows NT 10.0; Win64; x64) AppleWebKit/537.36 (KHTML, like Gecko) Chrome/75.0.3770.142 Safari/537.36
Message - 
Error Message: Column "orderStatus" does not exist.

User Referrer: localhost:3288

Browser Name: Chrome

UserId: 

Logger: System.Web.Helpers

Debug Object Details: 


System.InvalidOperationException: Column "orderStatus" does not exist.
   at System.Web.Helpers.WebGridRow.get_Item(String name)
   at CallSite.Target(Closure , CallSite , Object , String )
   at Znode.Engine.WebStore.Extensions.ObjectExtension.GetDynamicProperty(Object currentObject, String member, Object row) in D:\Jenkins-Znode\workspace\Znode-NuGet-Project-Build\Projects\Libraries\Znode.WebStore.Core\Extensions\ObjectExtension.cs:line 81

Date - 18 Jul 2019 14:06:07
Level - ERROR
UserAgent - Mozilla/5.0 (Windows NT 10.0; Win64; x64) AppleWebKit/537.36 (KHTML, like Gecko) Chrome/75.0.3770.142 Safari/537.36
Message - 
Error Message: Column "omsQuoteId" does not exist.

User Referrer: localhost:3288

Browser Name: Chrome

UserId: 

Logger: System.Web.Helpers

Debug Object Details: 


System.InvalidOperationException: Column "omsQuoteId" does not exist.
   at System.Web.Helpers.WebGridRow.get_Item(String name)
   at CallSite.Target(Closure , CallSite , Object , String )
   at Znode.Engine.WebStore.Extensions.ObjectExtension.GetDynamicProperty(Object currentObject, String member, Object row) in D:\Jenkins-Znode\workspace\Znode-NuGet-Project-Build\Projects\Libraries\Znode.WebStore.Core\Extensions\ObjectExtension.cs:line 81

Date - 18 Jul 2019 14:06:07
Level - ERROR
UserAgent - Mozilla/5.0 (Windows NT 10.0; Win64; x64) AppleWebKit/537.36 (KHTML, like Gecko) Chrome/75.0.3770.142 Safari/537.36
Message - 
Error Message: Column "orderStatus" does not exist.

User Referrer: localhost:3288

Browser Name: Chrome

UserId: 

Logger: System.Web.Helpers

Debug Object Details: 


System.InvalidOperationException: Column "orderStatus" does not exist.
   at System.Web.Helpers.WebGridRow.get_Item(String name)
   at CallSite.Target(Closure , CallSite , Object , String )
   at Znode.Engine.WebStore.Extensions.ObjectExtension.GetDynamicProperty(Object currentObject, String member, Object row) in D:\Jenkins-Znode\workspace\Znode-NuGet-Project-Build\Projects\Libraries\Znode.WebStore.Core\Extensions\ObjectExtension.cs:line 81

Date - 18 Jul 2019 14:06:07
Level - ERROR
UserAgent - Mozilla/5.0 (Windows NT 10.0; Win64; x64) AppleWebKit/537.36 (KHTML, like Gecko) Chrome/75.0.3770.142 Safari/537.36
Message - 
Error Message: Column "omsQuoteId" does not exist.

User Referrer: localhost:3288

Browser Name: Chrome

UserId: 

Logger: System.Web.Helpers

Debug Object Details: 


System.InvalidOperationException: Column "omsQuoteId" does not exist.
   at System.Web.Helpers.WebGridRow.get_Item(String name)
   at CallSite.Target(Closure , CallSite , Object , String )
   at Znode.Engine.WebStore.Extensions.ObjectExtension.GetDynamicProperty(Object currentObject, String member, Object row) in D:\Jenkins-Znode\workspace\Znode-NuGet-Project-Build\Projects\Libraries\Znode.WebStore.Core\Extensions\ObjectExtension.cs:line 81

Date - 18 Jul 2019 14:06:07
Level - ERROR
UserAgent - Mozilla/5.0 (Windows NT 10.0; Win64; x64) AppleWebKit/537.36 (KHTML, like Gecko) Chrome/75.0.3770.142 Safari/537.36
Message - 
Error Message: Column "orderStatus" does not exist.

User Referrer: localhost:3288

Browser Name: Chrome

UserId: 

Logger: System.Web.Helpers

Debug Object Details: 


System.InvalidOperationException: Column "orderStatus" does not exist.
   at System.Web.Helpers.WebGridRow.get_Item(String name)
   at CallSite.Target(Closure , CallSite , Object , String )
   at Znode.Engine.WebStore.Extensions.ObjectExtension.GetDynamicProperty(Object currentObject, String member, Object row) in D:\Jenkins-Znode\workspace\Znode-NuGet-Project-Build\Projects\Libraries\Znode.WebStore.Core\Extensions\ObjectExtension.cs:line 81

Date - 18 Jul 2019 14:06:07
Level - ERROR
UserAgent - Mozilla/5.0 (Windows NT 10.0; Win64; x64) AppleWebKit/537.36 (KHTML, like Gecko) Chrome/75.0.3770.142 Safari/537.36
Message - 
Error Message: Column "omsQuoteId" does not exist.

User Referrer: localhost:3288

Browser Name: Chrome

UserId: 

Logger: System.Web.Helpers

Debug Object Details: 


System.InvalidOperationException: Column "omsQuoteId" does not exist.
   at System.Web.Helpers.WebGridRow.get_Item(String name)
   at CallSite.Target(Closure , CallSite , Object , String )
   at Znode.Engine.WebStore.Extensions.ObjectExtension.GetDynamicProperty(Object currentObject, String member, Object row) in D:\Jenkins-Znode\workspace\Znode-NuGet-Project-Build\Projects\Libraries\Znode.WebStore.Core\Extensions\ObjectExtension.cs:line 81

Date - 18 Jul 2019 14:06:07
Level - ERROR
UserAgent - Mozilla/5.0 (Windows NT 10.0; Win64; x64) AppleWebKit/537.36 (KHTML, like Gecko) Chrome/75.0.3770.142 Safari/537.36
Message - 
Error Message: Column "orderStatus" does not exist.

User Referrer: localhost:3288

Browser Name: Chrome

UserId: 

Logger: System.Web.Helpers

Debug Object Details: 


System.InvalidOperationException: Column "orderStatus" does not exist.
   at System.Web.Helpers.WebGridRow.get_Item(String name)
   at CallSite.Target(Closure , CallSite , Object , String )
   at Znode.Engine.WebStore.Extensions.ObjectExtension.GetDynamicProperty(Object currentObject, String member, Object row) in D:\Jenkins-Znode\workspace\Znode-NuGet-Project-Build\Projects\Libraries\Znode.WebStore.Core\Extensions\ObjectExtension.cs:line 81

Date - 18 Jul 2019 14:06:10
Level - ERROR
UserAgent - Mozilla/5.0 (Windows NT 10.0; Win64; x64) AppleWebKit/537.36 (KHTML, like Gecko) Chrome/75.0.3770.142 Safari/537.36
Message - 
Error Message: Object reference not set to an instance of an object.

User Referrer: localhost:3288

Browser Name: Chrome

UserId: 

Logger: Znode.Engine.Api.Client

Debug Object Details: 


System.NullReferenceException: Object reference not set to an instance of an object.
   at Znode.Engine.Api.Client.BaseClient.GetResultFromResponse[T](HttpWebRequest request, ApiStatus status, String endpoint, String methodType, String data) in D:\Jenkins-Znode\workspace\Znode-NuGet-Project-Build\Projects\Engines\Znode.Engine.Api.Client\Clients\Clients\Shared\BaseClient.cs:line 552
   at Znode.Engine.Api.Client.BaseClient.GetResourceFromEndpoint[T](String endpoint, ApiStatus status) in D:\Jenkins-Znode\workspace\Znode-NuGet-Project-Build\Projects\Engines\Znode.Engine.Api.Client\Clients\Clients\Shared\BaseClient.cs:line 237
   at Znode.Engine.Api.Client.PaymentClient.GetSavedCardDetailsByCustomerGUID(String customersGUID) in D:\Jenkins-Znode\workspace\Znode-NuGet-Project-Build\Projects\Engines\Znode.Engine.Api.Client\Clients\Clients\Payment\PaymentClient.cs:line 407
   at Znode.Engine.WebStore.Agents.PaymentAgent.GetSaveCreditCardCount(String customersGUID) in D:\Jenkins-Znode\workspace\Znode-NuGet-Project-Build\Projects\Libraries\Znode.WebStore.Core\Agents\Agents\PaymentAgent.cs:line 151

Date - 18 Jul 2019 14:06:53
Level - ERROR
UserAgent - Mozilla/5.0 (Windows NT 10.0; Win64; x64; rv:68.0) Gecko/20100101 Firefox/68.0
Message - 
Error Message: The underlying provider failed on Open.

User Referrer: localhost:3288

Browser Name: Firefox

UserId: 

Logger: Znode.Engine.Api.Client

Debug Object Details: 


Znode.Engine.Exceptions.ZnodeException: The underlying provider failed on Open.
   at Znode.Engine.Api.Client.BaseClient.CheckStatusAndThrow[T](ApiStatus status, Collection`1 expectedStatusCodes) in D:\Jenkins-Znode\workspace\Znode-NuGet-Project-Build\Projects\Engines\Znode.Engine.Api.Client\Clients\Clients\Shared\BaseClient.cs:line 204
   at Znode.Engine.Api.Client.UserClient.GetAccountByUser(String username) in D:\Jenkins-Znode\workspace\Znode-NuGet-Project-Build\Projects\Engines\Znode.Engine.Api.Client\Clients\Clients\User\UserClient.cs:line 78
   at Znode.Engine.WebStore.BaseAgent.GetUserDetails() in D:\Jenkins-Znode\workspace\Znode-NuGet-Project-Build\Projects\Libraries\Znode.WebStore.Core\Agents\Agents\BaseAgent.cs:line 151

Date - 18 Jul 2019 14:06:55
Level - ERROR
UserAgent - Mozilla/5.0 (Windows NT 10.0; Win64; x64; rv:68.0) Gecko/20100101 Firefox/68.0
Message - 
Error Message: Object reference not set to an instance of an object.

User Referrer: localhost:3288

Browser Name: Firefox

UserId: 

Logger: Znode.Engine.Api.Client

Debug Object Details: 


Znode.Engine.Exceptions.ZnodeException: Object reference not set to an instance of an object.
   at Znode.Engine.Api.Client.BaseClient.CheckStatusAndThrow[T](ApiStatus status, Collection`1 expectedStatusCodes) in D:\Jenkins-Znode\workspace\Znode-NuGet-Project-Build\Projects\Engines\Znode.Engine.Api.Client\Clients\Clients\Shared\BaseClient.cs:line 204
   at Znode.Engine.Api.Client.UserClient.GetAccountByUser(String username) in D:\Jenkins-Znode\workspace\Znode-NuGet-Project-Build\Projects\Engines\Znode.Engine.Api.Client\Clients\Clients\User\UserClient.cs:line 78
   at Znode.Engine.WebStore.BaseAgent.GetUserDetails() in D:\Jenkins-Znode\workspace\Znode-NuGet-Project-Build\Projects\Libraries\Znode.WebStore.Core\Agents\Agents\BaseAgent.cs:line 151

Date - 18 Jul 2019 14:06:59
Level - ERROR
UserAgent - Mozilla/5.0 (Windows NT 10.0; Win64; x64; rv:68.0) Gecko/20100101 Firefox/68.0
Message - 
Error Message: An error occurred while executing the command definition. See the inner exception for details.

User Referrer: localhost:3288

Browser Name: Firefox

UserId: 

Logger: Znode.Engine.Api.Client

Debug Object Details: 


Znode.Engine.Exceptions.ZnodeException: An error occurred while executing the command definition. See the inner exception for details.
   at Znode.Engine.Api.Client.BaseClient.CheckStatusAndThrow[T](ApiStatus status, Collection`1 expectedStatusCodes) in D:\Jenkins-Znode\workspace\Znode-NuGet-Project-Build\Projects\Engines\Znode.Engine.Api.Client\Clients\Clients\Shared\BaseClient.cs:line 204
   at Znode.Engine.Api.Client.UserClient.GetAccountByUser(String username) in D:\Jenkins-Znode\workspace\Znode-NuGet-Project-Build\Projects\Engines\Znode.Engine.Api.Client\Clients\Clients\User\UserClient.cs:line 78
   at Znode.Engine.WebStore.BaseAgent.GetUserDetails() in D:\Jenkins-Znode\workspace\Znode-NuGet-Project-Build\Projects\Libraries\Znode.WebStore.Core\Agents\Agents\BaseAgent.cs:line 151

Date - 18 Jul 2019 14:35:57
Level - ERROR
UserAgent - Mozilla/5.0 (Windows NT 10.0; Win64; x64; rv:68.0) Gecko/20100101 Firefox/68.0
Message - 
Error Message: The parameters dictionary contains a null entry for parameter 'paymentSettingId' of non-nullable type 'System.Int32' for method 'System.Web.Mvc.ActionResult GetPaymentProvider(System.String, Int32)' in 'Znode.Engine.WebStore.Controllers.CheckoutController'. An optional parameter must be a reference type, a nullable type, or be declared as an optional parameter.
Parameter name: parameters

User Referrer: localhost:3288

Browser Name: Firefox

UserId: 

Logger: System.Web.Mvc

Debug Object Details: 


System.ArgumentException: The parameters dictionary contains a null entry for parameter 'paymentSettingId' of non-nullable type 'System.Int32' for method 'System.Web.Mvc.ActionResult GetPaymentProvider(System.String, Int32)' in 'Znode.Engine.WebStore.Controllers.CheckoutController'. An optional parameter must be a reference type, a nullable type, or be declared as an optional parameter.
Parameter name: parameters
   at System.Web.Mvc.ActionDescriptor.ExtractParameterFromDictionary(ParameterInfo parameterInfo, IDictionary`2 parameters, MethodInfo methodInfo)
   at System.Web.Mvc.ReflectedActionDescriptor.Execute(ControllerContext controllerContext, IDictionary`2 parameters)
   at System.Web.Mvc.ControllerActionInvoker.InvokeActionMethod(ControllerContext controllerContext, ActionDescriptor actionDescriptor, IDictionary`2 parameters)
   at System.Web.Mvc.Async.AsyncControllerActionInvoker.<BeginInvokeSynchronousActionMethod>b__39(IAsyncResult asyncResult, ActionInvocation innerInvokeState)
   at System.Web.Mvc.Async.AsyncResultWrapper.WrappedAsyncResult`2.CallEndDelegate(IAsyncResult asyncResult)
   at System.Web.Mvc.Async.AsyncResultWrapper.WrappedAsyncResultBase`1.End()
   at System.Web.Mvc.Async.AsyncControllerActionInvoker.EndInvokeActionMethod(IAsyncResult asyncResult)
   at System.Web.Mvc.Async.AsyncControllerActionInvoker.AsyncInvocationWithFilters.<InvokeActionMethodFilterAsynchronouslyRecursive>b__3d()
   at System.Web.Mvc.Async.AsyncControllerActionInvoker.AsyncInvocationWithFilters.<>c__DisplayClass46.<InvokeActionMethodFilterAsynchronouslyRecursive>b__3f()
   at System.Web.Mvc.Async.AsyncControllerActionInvoker.<>c__DisplayClass33.<BeginInvokeActionMethodWithFilters>b__32(IAsyncResult asyncResult)
   at System.Web.Mvc.Async.AsyncResultWrapper.WrappedAsyncResult`1.CallEndDelegate(IAsyncResult asyncResult)
   at System.Web.Mvc.Async.AsyncResultWrapper.WrappedAsyncResultBase`1.End()
   at System.Web.Mvc.Async.AsyncControllerActionInvoker.EndInvokeActionMethodWithFilters(IAsyncResult asyncResult)
   at System.Web.Mvc.Async.AsyncControllerActionInvoker.<>c__DisplayClass21.<>c__DisplayClass2b.<BeginInvokeAction>b__1c()
   at System.Web.Mvc.Async.AsyncControllerActionInvoker.<>c__DisplayClass21.<BeginInvokeAction>b__1e(IAsyncResult asyncResult)

Date - 18 Jul 2019 15:14:54
Level - ERROR
UserAgent - Mozilla/5.0 (Windows NT 10.0; Win64; x64; rv:68.0) Gecko/20100101 Firefox/68.0
Message - 
Error Message: The parameters dictionary contains a null entry for parameter 'paymentSettingId' of non-nullable type 'System.Int32' for method 'System.Web.Mvc.ActionResult GetPaymentProvider(System.String, Int32)' in 'Znode.Engine.WebStore.Controllers.CheckoutController'. An optional parameter must be a reference type, a nullable type, or be declared as an optional parameter.
Parameter name: parameters

User Referrer: localhost:3288

Browser Name: Firefox

UserId: 

Logger: System.Web.Mvc

Debug Object Details: 


System.ArgumentException: The parameters dictionary contains a null entry for parameter 'paymentSettingId' of non-nullable type 'System.Int32' for method 'System.Web.Mvc.ActionResult GetPaymentProvider(System.String, Int32)' in 'Znode.Engine.WebStore.Controllers.CheckoutController'. An optional parameter must be a reference type, a nullable type, or be declared as an optional parameter.
Parameter name: parameters
   at System.Web.Mvc.ActionDescriptor.ExtractParameterFromDictionary(ParameterInfo parameterInfo, IDictionary`2 parameters, MethodInfo methodInfo)
   at System.Web.Mvc.ReflectedActionDescriptor.Execute(ControllerContext controllerContext, IDictionary`2 parameters)
   at System.Web.Mvc.ControllerActionInvoker.InvokeActionMethod(ControllerContext controllerContext, ActionDescriptor actionDescriptor, IDictionary`2 parameters)
   at System.Web.Mvc.Async.AsyncControllerActionInvoker.<BeginInvokeSynchronousActionMethod>b__39(IAsyncResult asyncResult, ActionInvocation innerInvokeState)
   at System.Web.Mvc.Async.AsyncResultWrapper.WrappedAsyncResult`2.CallEndDelegate(IAsyncResult asyncResult)
   at System.Web.Mvc.Async.AsyncResultWrapper.WrappedAsyncResultBase`1.End()
   at System.Web.Mvc.Async.AsyncControllerActionInvoker.EndInvokeActionMethod(IAsyncResult asyncResult)
   at System.Web.Mvc.Async.AsyncControllerActionInvoker.AsyncInvocationWithFilters.<InvokeActionMethodFilterAsynchronouslyRecursive>b__3d()
   at System.Web.Mvc.Async.AsyncControllerActionInvoker.AsyncInvocationWithFilters.<>c__DisplayClass46.<InvokeActionMethodFilterAsynchronouslyRecursive>b__3f()
   at System.Web.Mvc.Async.AsyncControllerActionInvoker.<>c__DisplayClass33.<BeginInvokeActionMethodWithFilters>b__32(IAsyncResult asyncResult)
   at System.Web.Mvc.Async.AsyncResultWrapper.WrappedAsyncResult`1.CallEndDelegate(IAsyncResult asyncResult)
   at System.Web.Mvc.Async.AsyncResultWrapper.WrappedAsyncResultBase`1.End()
   at System.Web.Mvc.Async.AsyncControllerActionInvoker.EndInvokeActionMethodWithFilters(IAsyncResult asyncResult)
   at System.Web.Mvc.Async.AsyncControllerActionInvoker.<>c__DisplayClass21.<>c__DisplayClass2b.<BeginInvokeAction>b__1c()
   at System.Web.Mvc.Async.AsyncControllerActionInvoker.<>c__DisplayClass21.<BeginInvokeAction>b__1e(IAsyncResult asyncResult)

Date - 18 Jul 2019 15:17:26
Level - ERROR
UserAgent - Mozilla/5.0 (Windows NT 10.0; Win64; x64; rv:68.0) Gecko/20100101 Firefox/68.0
Message - 
Error Message: The view 'GetPaymentProvider' or its master was not found or no view engine supports the searched locations. The following locations were searched:
~/Views/Themes/AWCT/Views/Checkout/GetPaymentProvider.cshtml
~/Views/Themes//Views/Checkout/GetPaymentProvider.cshtml
~/Views/Themes/Checkout/GetPaymentProvider.cshtml
~/Views/Themes/AWCT/DynamicGrid/GetPaymentProvider.cshtml
~/Views/Themes//DynamicGrid/GetPaymentProvider.cshtml
~/Views/Themes/AWCT/Views/Shared/GetPaymentProvider.cshtml
~/Views/Themes//Views/Shared/GetPaymentProvider.cshtml
~/Views/Themes/AWCT/Views/Shared/PDP Template/GetPaymentProvider.cshtml
~/Views/Themes//Views/Shared/PDP Template/GetPaymentProvider.cshtml
~/Views/Themes/Templates/GetPaymentProvider.cshtml
~/Views/Themes/AWCT/Views/Product/GetPaymentProvider.cshtml
~/Views/Themes//Views/Product/GetPaymentProvider.cshtml
~/Views/Themes/AWCT/Views/Category/GetPaymentProvider.cshtml
~/Views/Themes//Views/Category/GetPaymentProvider.cshtml

User Referrer: localhost:3288

Browser Name: Firefox

UserId: 

Logger: System.Web.Mvc

Debug Object Details: 


System.InvalidOperationException: The view 'GetPaymentProvider' or its master was not found or no view engine supports the searched locations. The following locations were searched:
~/Views/Themes/AWCT/Views/Checkout/GetPaymentProvider.cshtml
~/Views/Themes//Views/Checkout/GetPaymentProvider.cshtml
~/Views/Themes/Checkout/GetPaymentProvider.cshtml
~/Views/Themes/AWCT/DynamicGrid/GetPaymentProvider.cshtml
~/Views/Themes//DynamicGrid/GetPaymentProvider.cshtml
~/Views/Themes/AWCT/Views/Shared/GetPaymentProvider.cshtml
~/Views/Themes//Views/Shared/GetPaymentProvider.cshtml
~/Views/Themes/AWCT/Views/Shared/PDP Template/GetPaymentProvider.cshtml
~/Views/Themes//Views/Shared/PDP Template/GetPaymentProvider.cshtml
~/Views/Themes/Templates/GetPaymentProvider.cshtml
~/Views/Themes/AWCT/Views/Product/GetPaymentProvider.cshtml
~/Views/Themes//Views/Product/GetPaymentProvider.cshtml
~/Views/Themes/AWCT/Views/Category/GetPaymentProvider.cshtml
~/Views/Themes//Views/Category/GetPaymentProvider.cshtml
   at System.Web.Mvc.ViewResult.FindView(ControllerContext context)
   at System.Web.Mvc.ViewResultBase.ExecuteResult(ControllerContext context)
   at System.Web.Mvc.ControllerActionInvoker.InvokeActionResult(ControllerContext controllerContext, ActionResult actionResult)
   at System.Web.Mvc.ControllerActionInvoker.InvokeActionResultFilterRecursive(IList`1 filters, Int32 filterIndex, ResultExecutingContext preContext, ControllerContext controllerContext, ActionResult actionResult)
   at System.Web.Mvc.ControllerActionInvoker.InvokeActionResultFilterRecursive(IList`1 filters, Int32 filterIndex, ResultExecutingContext preContext, ControllerContext controllerContext, ActionResult actionResult)
   at System.Web.Mvc.ControllerActionInvoker.InvokeActionResultWithFilters(ControllerContext controllerContext, IList`1 filters, ActionResult actionResult)
   at System.Web.Mvc.Async.AsyncControllerActionInvoker.<>c__DisplayClass21.<>c__DisplayClass2b.<BeginInvokeAction>b__1c()
   at System.Web.Mvc.Async.AsyncControllerActionInvoker.<>c__DisplayClass21.<BeginInvokeAction>b__1e(IAsyncResult asyncResult)
